EESchema Schematic File Version 2
LIBS:power
LIBS:device
LIBS:transistors
LIBS:conn
LIBS:linear
LIBS:regul
LIBS:74xx
LIBS:cmos4000
LIBS:adc-dac
LIBS:memory
LIBS:xilinx
LIBS:microcontrollers
LIBS:dsp
LIBS:microchip
LIBS:analog_switches
LIBS:motorola
LIBS:texas
LIBS:intel
LIBS:audio
LIBS:interface
LIBS:digital-audio
LIBS:philips
LIBS:display
LIBS:cypress
LIBS:siliconi
LIBS:opto
LIBS:atmel
LIBS:contrib
LIBS:valves
LIBS:momclock-cache
EELAYER 25 0
EELAYER END
$Descr A4 11693 8268
encoding utf-8
Sheet 1 1
Title ""
Date ""
Rev ""
Comp ""
Comment1 ""
Comment2 ""
Comment3 ""
Comment4 ""
$EndDescr
$Comp
L TOD8201BG-B AFF1
U 1 1 561ADCA6
P 4750 1350
F 0 "AFF1" H 4750 1850 60  0000 C CNN
F 1 "TOD8201BG-B" H 4750 850 60  0000 C CNN
F 2 "hetii:TOD8201BG-B" H 4750 1350 60  0001 C CNN
F 3 "" H 4750 1350 60  0000 C CNN
	1    4750 1350
	1    0    0    -1  
$EndComp
Entry Wire Line
	5700 950  5800 850 
Entry Wire Line
	5700 1050 5800 950 
Entry Wire Line
	5700 1150 5800 1050
Entry Wire Line
	5700 1250 5800 1150
Entry Wire Line
	5700 1350 5800 1250
Entry Wire Line
	5700 1450 5800 1350
Entry Wire Line
	5700 1550 5800 1450
Entry Wire Line
	5700 1650 5800 1550
Entry Wire Line
	5700 1750 5800 1650
Entry Wire Line
	3700 850  3800 950 
Entry Wire Line
	3700 950  3800 1050
Entry Wire Line
	3700 1050 3800 1150
Entry Wire Line
	3700 1150 3800 1250
Entry Wire Line
	3700 1250 3800 1350
Entry Wire Line
	3700 1350 3800 1450
Entry Wire Line
	3700 1450 3800 1550
Entry Wire Line
	3700 1550 3800 1650
Entry Wire Line
	3700 1650 3800 1750
Entry Wire Line
	5800 850  5900 950 
Entry Wire Line
	5800 950  5900 1050
Entry Wire Line
	5800 1050 5900 1150
Entry Wire Line
	5800 1150 5900 1250
Entry Wire Line
	5800 1250 5900 1350
Entry Wire Line
	5800 1350 5900 1450
Entry Wire Line
	5800 1450 5900 1550
Entry Wire Line
	5800 1550 5900 1650
Entry Wire Line
	5800 1650 5900 1750
Entry Wire Line
	7800 950  7900 850 
Entry Wire Line
	7800 1050 7900 950 
Entry Wire Line
	7800 1150 7900 1050
Entry Wire Line
	7800 1250 7900 1150
Entry Wire Line
	7800 1350 7900 1250
Entry Wire Line
	7800 1450 7900 1350
Entry Wire Line
	7800 1550 7900 1450
Entry Wire Line
	7800 1650 7900 1550
Entry Wire Line
	7800 1750 7900 1650
Text Label 3850 1050 0    60   ~ 0
a
Text Label 3850 1150 0    60   ~ 0
b
Text Label 3850 1250 0    60   ~ 0
c
Text Label 3850 1350 0    60   ~ 0
d
Text Label 3850 1450 0    60   ~ 0
e
Text Label 3850 1550 0    60   ~ 0
f
Text Label 3850 1650 0    60   ~ 0
z3
Text Label 5650 1050 0    60   ~ 0
z1
Text Label 5650 1150 0    60   ~ 0
b
Text Label 5650 1250 0    60   ~ 0
c
Text Label 5650 1350 0    60   ~ 0
d
Text Label 5650 1450 0    60   ~ 0
e
Text Label 5650 1550 0    60   ~ 0
z2
Text Label 5650 1650 0    60   ~ 0
g
Text Label 5650 1750 0    60   ~ 0
h
Text Label 3850 1750 0    60   ~ 0
h
Text Label 5950 1050 0    60   ~ 0
a
Text Label 5950 1150 0    60   ~ 0
b
Text Label 5950 1250 0    60   ~ 0
c
Text Label 5950 1350 0    60   ~ 0
d
Text Label 5950 1450 0    60   ~ 0
e
Text Label 5950 1550 0    60   ~ 0
f
Text Label 5950 1650 0    60   ~ 0
z3
Text Label 5950 1750 0    60   ~ 0
h
Text Label 7750 1050 0    60   ~ 0
a
Text Label 7750 1150 0    60   ~ 0
b
Text Label 7750 1250 0    60   ~ 0
c
Text Label 7750 1350 0    60   ~ 0
d
Text Label 7750 1450 0    60   ~ 0
e
Text Label 7750 1550 0    60   ~ 0
f
Text Label 7750 1650 0    60   ~ 0
g
Text Label 7750 1750 0    60   ~ 0
h
Entry Wire Line
	3600 1650 3700 1550
Entry Wire Line
	3600 1750 3700 1650
Entry Wire Line
	3600 1850 3700 1750
Entry Wire Line
	3600 1950 3700 1850
Entry Wire Line
	3600 2050 3700 1950
Entry Wire Line
	3600 2150 3700 2050
Text Label 3550 1650 0    60   ~ 0
a
Text Label 3550 1750 0    60   ~ 0
b
Text Label 3550 1850 0    60   ~ 0
c
Text Label 3550 1950 0    60   ~ 0
d
Text Label 3550 2050 0    60   ~ 0
e
Text Label 3550 2150 0    60   ~ 0
f
Text Label 3550 1350 0    60   ~ 0
g
Text Label 3550 1450 0    60   ~ 0
h
Entry Wire Line
	3600 1350 3700 1250
Entry Wire Line
	3600 1450 3700 1350
$Comp
L R R7
U 1 1 561AF5CE
P 3400 2150
F 0 "R7" V 3400 2100 50  0000 C CNN
F 1 "56" V 3400 2200 50  0000 C CNN
F 2 "Resistors_SMD:R_0603_HandSoldering" V 3330 2150 30  0001 C CNN
F 3 "" H 3400 2150 30  0000 C CNN
	1    3400 2150
	0    1    1    0   
$EndComp
$Comp
L R R6
U 1 1 561AF6EE
P 3400 2050
F 0 "R6" V 3400 2000 50  0000 C CNN
F 1 "56" V 3400 2100 50  0000 C CNN
F 2 "Resistors_SMD:R_0603_HandSoldering" V 3330 2050 30  0001 C CNN
F 3 "" H 3400 2050 30  0000 C CNN
	1    3400 2050
	0    1    1    0   
$EndComp
$Comp
L R R5
U 1 1 561AF711
P 3400 1950
F 0 "R5" V 3400 1900 50  0000 C CNN
F 1 "56" V 3400 2000 50  0000 C CNN
F 2 "Resistors_SMD:R_0603_HandSoldering" V 3330 1950 30  0001 C CNN
F 3 "" H 3400 1950 30  0000 C CNN
	1    3400 1950
	0    1    1    0   
$EndComp
$Comp
L R R4
U 1 1 561AF733
P 3400 1850
F 0 "R4" V 3400 1800 50  0000 C CNN
F 1 "56" V 3400 1900 50  0000 C CNN
F 2 "Resistors_SMD:R_0603_HandSoldering" V 3330 1850 30  0001 C CNN
F 3 "" H 3400 1850 30  0000 C CNN
	1    3400 1850
	0    1    1    0   
$EndComp
$Comp
L R R3
U 1 1 561AF758
P 3050 1750
F 0 "R3" V 3050 1700 50  0000 C CNN
F 1 "56" V 3050 1800 50  0000 C CNN
F 2 "Resistors_SMD:R_0603_HandSoldering" V 2980 1750 30  0001 C CNN
F 3 "" H 3050 1750 30  0000 C CNN
	1    3050 1750
	0    1    1    0   
$EndComp
$Comp
L R R2
U 1 1 561AF784
P 3400 1650
F 0 "R2" V 3400 1600 50  0000 C CNN
F 1 "56" V 3400 1700 50  0000 C CNN
F 2 "Resistors_SMD:R_0603_HandSoldering" V 3330 1650 30  0001 C CNN
F 3 "" H 3400 1650 30  0000 C CNN
	1    3400 1650
	0    1    1    0   
$EndComp
$Comp
L R R9
U 1 1 561AF7AF
P 3400 1450
F 0 "R9" V 3400 1400 50  0000 C CNN
F 1 "56" V 3400 1500 50  0000 C CNN
F 2 "Resistors_SMD:R_0603_HandSoldering" V 3330 1450 30  0001 C CNN
F 3 "" H 3400 1450 30  0000 C CNN
	1    3400 1450
	0    1    1    0   
$EndComp
$Comp
L R R8
U 1 1 561AF7E1
P 3400 1350
F 0 "R8" V 3400 1300 50  0000 C CNN
F 1 "56" V 3400 1400 50  0000 C CNN
F 2 "Resistors_SMD:R_1206_HandSoldering" V 3330 1350 30  0001 C CNN
F 3 "" H 3400 1350 30  0000 C CNN
	1    3400 1350
	0    1    1    0   
$EndComp
Text Label 3850 950  0    60   ~ 0
a1
Text Label 5650 950  0    60   ~ 0
a2
Text Label 5950 950  0    60   ~ 0
a3
Text Label 7750 950  0    60   ~ 0
a4
$Comp
L TOD8201BG-B AFF2
U 1 1 561B1F20
P 6850 1350
F 0 "AFF2" H 6850 1850 60  0000 C CNN
F 1 "TOD8201BG-B" H 6850 850 60  0000 C CNN
F 2 "hetii:TOD8201BG-B" H 6850 1350 60  0001 C CNN
F 3 "" H 6850 1350 60  0000 C CNN
	1    6850 1350
	1    0    0    -1  
$EndComp
$Comp
L BC817-40 Q4
U 1 1 561B39A1
P 8550 2500
F 0 "Q4" V 8350 2750 50  0000 L CNN
F 1 "BC817-40" V 8450 2750 50  0000 L CNN
F 2 "Housings_SOT-23_SOT-143_TSOT-6:SOT-23" V 8550 2750 50  0000 L CIN
F 3 "" H 8550 2500 50  0000 L CNN
	1    8550 2500
	0    1    1    0   
$EndComp
$Comp
L BC817-40 Q3
U 1 1 561B46B8
P 8550 2050
F 0 "Q3" V 8350 2300 50  0000 L CNN
F 1 "BC817-40" V 8450 2300 50  0000 L CNN
F 2 "Housings_SOT-23_SOT-143_TSOT-6:SOT-23" V 8550 2300 50  0000 L CIN
F 3 "" H 8550 2050 50  0000 L CNN
	1    8550 2050
	0    1    1    0   
$EndComp
$Comp
L BC817-40 Q2
U 1 1 561B470D
P 8550 1600
F 0 "Q2" V 8350 1850 50  0000 L CNN
F 1 "BC817-40" V 8450 1850 50  0000 L CNN
F 2 "Housings_SOT-23_SOT-143_TSOT-6:SOT-23" V 8550 1850 50  0000 L CIN
F 3 "" H 8550 1600 50  0000 L CNN
	1    8550 1600
	0    1    1    0   
$EndComp
$Comp
L BC817-40 Q1
U 1 1 561B4799
P 8550 1150
F 0 "Q1" V 8350 1400 50  0000 L CNN
F 1 "BC817-40" V 8450 1400 50  0000 L CNN
F 2 "Housings_SOT-23_SOT-143_TSOT-6:SOT-23" V 8550 1400 50  0000 L CIN
F 3 "" H 8550 1150 50  0000 L CNN
	1    8550 1150
	0    1    1    0   
$EndComp
$Comp
L R R11
U 1 1 561B4912
P 8250 950
F 0 "R11" V 8150 950 50  0000 C CNN
F 1 "1k" V 8250 950 50  0000 C CNN
F 2 "Resistors_SMD:R_0603_HandSoldering" V 8180 950 30  0001 C CNN
F 3 "" H 8250 950 30  0000 C CNN
	1    8250 950 
	0    1    1    0   
$EndComp
$Comp
L R R12
U 1 1 561B4C08
P 8250 1400
F 0 "R12" V 8150 1400 50  0000 C CNN
F 1 "1k" V 8250 1400 50  0000 C CNN
F 2 "Resistors_SMD:R_0603_HandSoldering" V 8180 1400 30  0001 C CNN
F 3 "" H 8250 1400 30  0000 C CNN
	1    8250 1400
	0    1    1    0   
$EndComp
$Comp
L R R13
U 1 1 561B4C79
P 8250 1850
F 0 "R13" V 8150 1850 50  0000 C CNN
F 1 "1k" V 8250 1850 50  0000 C CNN
F 2 "Resistors_SMD:R_0603_HandSoldering" V 8180 1850 30  0001 C CNN
F 3 "" H 8250 1850 30  0000 C CNN
	1    8250 1850
	0    1    1    0   
$EndComp
$Comp
L R R14
U 1 1 561B4CDD
P 8250 2300
F 0 "R14" V 8150 2300 50  0000 C CNN
F 1 "1k" V 8250 2300 50  0000 C CNN
F 2 "Resistors_SMD:R_0603_HandSoldering" V 8180 2300 30  0001 C CNN
F 3 "" H 8250 2300 30  0000 C CNN
	1    8250 2300
	0    1    1    0   
$EndComp
Entry Wire Line
	7900 2200 8000 2300
Entry Wire Line
	7900 1750 8000 1850
Entry Wire Line
	7900 1300 8000 1400
Entry Wire Line
	7900 850  8000 950 
Entry Wire Line
	7900 1150 8000 1250
Entry Wire Line
	7900 1600 8000 1700
Entry Wire Line
	7900 2050 8000 2150
Entry Wire Line
	7900 2500 8000 2600
Text Label 8000 950  0    60   ~ 0
b1
Text Label 8000 1400 0    60   ~ 0
b2
Text Label 8000 1850 0    60   ~ 0
b3
Text Label 8000 2300 0    60   ~ 0
b4
Text Label 8000 1250 0    60   ~ 0
a1
Text Label 8000 1700 0    60   ~ 0
a2
Text Label 8000 2150 0    60   ~ 0
a3
Text Label 8000 2600 0    60   ~ 0
a4
Entry Wire Line
	3600 1250 3700 1150
Entry Wire Line
	3600 1150 3700 1050
Entry Wire Line
	3600 1050 3700 950 
Entry Wire Line
	3600 950  3700 850 
Text Label 2750 950  0    60   ~ 0
b1
Text Label 2750 1050 0    60   ~ 0
b2
$Comp
L LED D1
U 1 1 561F677A
P 5600 2200
F 0 "D1" H 5600 2300 50  0000 C CNN
F 1 "LED" H 5600 2100 50  0000 C CNN
F 2 "LEDs:LED-5MM" H 5600 2200 60  0001 C CNN
F 3 "" H 5600 2200 60  0000 C CNN
	1    5600 2200
	0    -1   -1   0   
$EndComp
$Comp
L LED D2
U 1 1 561F6871
P 6000 2200
F 0 "D2" H 6000 2300 50  0000 C CNN
F 1 "LED" H 6000 2100 50  0000 C CNN
F 2 "LEDs:LED-5MM" H 6000 2200 60  0001 C CNN
F 3 "" H 6000 2200 60  0000 C CNN
	1    6000 2200
	0    -1   -1   0   
$EndComp
$Comp
L R R10
U 1 1 561F8AB5
P 5350 2550
F 0 "R10" V 5450 2550 50  0000 C CNN
F 1 "220" V 5350 2550 50  0000 C CNN
F 2 "Resistors_SMD:R_0603_HandSoldering" V 5280 2550 30  0001 C CNN
F 3 "" H 5350 2550 30  0000 C CNN
	1    5350 2550
	0    -1   -1   0   
$EndComp
$Comp
L R z4
U 1 1 56205E85
P 3400 1750
F 0 "z4" V 3400 1700 50  0000 C CNN
F 1 "0" V 3400 1800 50  0000 C CNN
F 2 "Resistors_SMD:R_1206" V 3330 1750 30  0001 C CNN
F 3 "" H 3400 1750 30  0000 C CNN
	1    3400 1750
	0    1    1    0   
$EndComp
$Comp
L R Z1
U 1 1 56201044
P 6850 2050
F 0 "Z1" V 6950 2050 50  0000 C CNN
F 1 "0" V 6850 2050 50  0000 C CNN
F 2 "Resistors_SMD:R_1206" V 6780 2050 30  0001 C CNN
F 3 "" H 6850 2050 30  0000 C CNN
	1    6850 2050
	0    1    1    0   
$EndComp
Text Label 6500 2050 0    60   ~ 0
a
$Comp
L R Z2
U 1 1 56201780
P 6850 2250
F 0 "Z2" V 6950 2250 50  0000 C CNN
F 1 "0" V 6850 2250 50  0000 C CNN
F 2 "Resistors_SMD:R_2010" V 6780 2250 30  0001 C CNN
F 3 "" H 6850 2250 30  0000 C CNN
	1    6850 2250
	0    1    1    0   
$EndComp
Text Label 7150 2250 0    60   ~ 0
z2
Text Label 6500 2250 0    60   ~ 0
f
$Comp
L R Z3
U 1 1 56201BC1
P 6850 2450
F 0 "Z3" V 6750 2450 50  0000 C CNN
F 1 "0" V 6850 2450 50  0000 C CNN
F 2 "Resistors_SMD:R_2010" V 6780 2450 30  0001 C CNN
F 3 "" H 6850 2450 30  0000 C CNN
	1    6850 2450
	0    -1   -1   0   
$EndComp
Text Label 7150 2450 0    60   ~ 0
z3
Text Label 6500 2450 0    60   ~ 0
g
$Comp
L CONN_01X16 P1
U 1 1 56214852
P 2050 1450
F 0 "P1" H 2050 2300 50  0000 C CNN
F 1 "CONN_01X16" V 2150 1450 50  0000 C CNN
F 2 "Pin_Headers:Pin_Header_Straight_1x16" H 2050 1450 60  0001 C CNN
F 3 "" H 2050 1450 60  0000 C CNN
	1    2050 1450
	-1   0    0    1   
$EndComp
$Comp
L TSOP1836 IR1
U 1 1 56215BA5
P 1300 950
F 0 "IR1" H 1200 1300 60  0000 C CNN
F 1 "TSOP1836" H 1300 600 60  0000 C CNN
F 2 "tsop:tsop-TSOP18XX" H 1300 950 60  0001 C CNN
F 3 "" H 1300 950 60  0000 C CNN
	1    1300 950 
	1    0    0    -1  
$EndComp
$Comp
L R R16
U 1 1 56216A4E
P 5800 2000
F 0 "R16" V 5880 2000 50  0000 C CNN
F 1 "0" V 5800 2000 50  0000 C CNN
F 2 "Resistors_SMD:R_1206_HandSoldering" V 5730 2000 30  0001 C CNN
F 3 "" H 5800 2000 30  0000 C CNN
	1    5800 2000
	0    -1   -1   0   
$EndComp
$Comp
L R R17
U 1 1 56216D5D
P 5800 2400
F 0 "R17" V 5880 2400 50  0000 C CNN
F 1 "0" V 5800 2400 50  0000 C CNN
F 2 "Resistors_SMD:R_1206_HandSoldering" V 5730 2400 30  0001 C CNN
F 3 "" H 5800 2400 30  0000 C CNN
	1    5800 2400
	0    1    1    0   
$EndComp
$Comp
L R R18
U 1 1 5621DDD1
P 5350 2000
F 0 "R18" V 5430 2000 50  0000 C CNN
F 1 "0" V 5350 2000 50  0000 C CNN
F 2 "Resistors_SMD:R_1206_HandSoldering" V 5280 2000 30  0001 C CNN
F 3 "" H 5350 2000 30  0000 C CNN
	1    5350 2000
	0    1    1    0   
$EndComp
Entry Wire Line
	5700 950  5800 850 
Entry Wire Line
	5700 1050 5800 950 
Entry Wire Line
	5700 1150 5800 1050
Entry Wire Line
	5700 1250 5800 1150
Entry Wire Line
	5700 1350 5800 1250
Entry Wire Line
	5700 1450 5800 1350
Entry Wire Line
	5700 1550 5800 1450
Entry Wire Line
	5700 1650 5800 1550
Entry Wire Line
	5700 1750 5800 1650
Entry Wire Line
	3700 850  3800 950 
Entry Wire Line
	3700 950  3800 1050
Entry Wire Line
	3700 1050 3800 1150
Entry Wire Line
	3700 1150 3800 1250
Entry Wire Line
	3700 1250 3800 1350
Entry Wire Line
	3700 1350 3800 1450
Entry Wire Line
	3700 1450 3800 1550
Entry Wire Line
	3700 1550 3800 1650
Entry Wire Line
	3700 1650 3800 1750
Entry Wire Line
	5800 850  5900 950 
Entry Wire Line
	5800 950  5900 1050
Entry Wire Line
	5800 1050 5900 1150
Entry Wire Line
	5800 1150 5900 1250
Entry Wire Line
	5800 1250 5900 1350
Entry Wire Line
	5800 1350 5900 1450
Entry Wire Line
	5800 1450 5900 1550
Entry Wire Line
	5800 1550 5900 1650
Entry Wire Line
	5800 1650 5900 1750
Entry Wire Line
	7800 950  7900 850 
Entry Wire Line
	7800 1050 7900 950 
Entry Wire Line
	7800 1150 7900 1050
Entry Wire Line
	7800 1250 7900 1150
Entry Wire Line
	7800 1350 7900 1250
Entry Wire Line
	7800 1450 7900 1350
Entry Wire Line
	7800 1550 7900 1450
Entry Wire Line
	7800 1650 7900 1550
Entry Wire Line
	7800 1750 7900 1650
Text Label 3850 1050 0    60   ~ 0
a
Text Label 3850 1150 0    60   ~ 0
b
Text Label 3850 1250 0    60   ~ 0
c
Text Label 3850 1350 0    60   ~ 0
d
Text Label 3850 1450 0    60   ~ 0
e
Text Label 3850 1550 0    60   ~ 0
f
Text Label 3850 1650 0    60   ~ 0
z3
Text Label 5650 1050 0    60   ~ 0
z1
Text Label 5650 1150 0    60   ~ 0
b
Text Label 5650 1250 0    60   ~ 0
c
Text Label 5650 1350 0    60   ~ 0
d
Text Label 5650 1450 0    60   ~ 0
e
Text Label 5650 1550 0    60   ~ 0
z2
Text Label 5650 1650 0    60   ~ 0
g
Text Label 5650 1750 0    60   ~ 0
h
Text Label 3850 1750 0    60   ~ 0
h
Text Label 5950 1050 0    60   ~ 0
a
Text Label 5950 1150 0    60   ~ 0
b
Text Label 5950 1250 0    60   ~ 0
c
Text Label 5950 1350 0    60   ~ 0
d
Text Label 5950 1450 0    60   ~ 0
e
Text Label 5950 1550 0    60   ~ 0
f
Text Label 5950 1650 0    60   ~ 0
z3
Text Label 5950 1750 0    60   ~ 0
h
Text Label 7750 1050 0    60   ~ 0
a
Text Label 7750 1150 0    60   ~ 0
b
Text Label 7750 1250 0    60   ~ 0
c
Text Label 7750 1350 0    60   ~ 0
d
Text Label 7750 1450 0    60   ~ 0
e
Text Label 7750 1550 0    60   ~ 0
f
Text Label 7750 1650 0    60   ~ 0
g
Text Label 7750 1750 0    60   ~ 0
h
Entry Wire Line
	3600 1650 3700 1550
Entry Wire Line
	3600 1750 3700 1650
Entry Wire Line
	3600 1850 3700 1750
Entry Wire Line
	3600 1950 3700 1850
Entry Wire Line
	3600 2050 3700 1950
Entry Wire Line
	3600 2150 3700 2050
Text Label 3550 1650 0    60   ~ 0
a
Text Label 3550 1750 0    60   ~ 0
b
Text Label 3550 1850 0    60   ~ 0
c
Text Label 3550 1950 0    60   ~ 0
d
Text Label 3550 2050 0    60   ~ 0
e
Text Label 3550 2150 0    60   ~ 0
f
Text Label 3550 1350 0    60   ~ 0
g
Text Label 3550 1450 0    60   ~ 0
h
Entry Wire Line
	3600 1350 3700 1250
Entry Wire Line
	3600 1450 3700 1350
Text Label 3850 950  0    60   ~ 0
a1
Text Label 5650 950  0    60   ~ 0
a2
Text Label 5950 950  0    60   ~ 0
a3
Text Label 7750 950  0    60   ~ 0
a4
Entry Wire Line
	7900 2200 8000 2300
Entry Wire Line
	7900 1750 8000 1850
Entry Wire Line
	7900 1300 8000 1400
Entry Wire Line
	7900 850  8000 950 
Entry Wire Line
	7900 1150 8000 1250
Entry Wire Line
	7900 1600 8000 1700
Entry Wire Line
	7900 2050 8000 2150
Entry Wire Line
	7900 2500 8000 2600
Text Label 8000 950  0    60   ~ 0
b1
Text Label 8000 1400 0    60   ~ 0
b2
Text Label 8000 1850 0    60   ~ 0
b3
Text Label 8000 2300 0    60   ~ 0
b4
Text Label 8000 1250 0    60   ~ 0
a1
Text Label 8000 1700 0    60   ~ 0
a2
Text Label 8000 2150 0    60   ~ 0
a3
Text Label 8000 2600 0    60   ~ 0
a4
Entry Wire Line
	3600 1250 3700 1150
Entry Wire Line
	3600 1150 3700 1050
Entry Wire Line
	3600 1050 3700 950 
Entry Wire Line
	3600 950  3700 850 
Text Label 2750 1150 0    60   ~ 0
b3
Text Label 2750 1250 0    60   ~ 0
b4
Text Label 6500 2050 0    60   ~ 0
a
Text Label 7150 2250 0    60   ~ 0
z2
Text Label 6500 2250 0    60   ~ 0
f
NoConn ~ 1400 3850
$Comp
L Crystal_Small Y1
U 1 1 561B242A
P 1250 4350
F 0 "Y1" H 1250 4450 50  0000 C CNN
F 1 "12MHz" H 1250 4250 50  0000 C CNN
F 2 "Crystals_Oscillators_SMD:Q_49U3HMS" H 1250 4350 60  0001 C CNN
F 3 "" H 1250 4350 60  0000 C CNN
	1    1250 4350
	0    1    1    0   
$EndComp
$Comp
L C C2
U 1 1 561B25D2
P 1250 4700
F 0 "C2" H 1275 4800 50  0000 L CNN
F 1 "C" H 1275 4600 50  0000 L CNN
F 2 "Capacitors_SMD:C_0603_HandSoldering" H 1288 4550 30  0001 C CNN
F 3 "" H 1250 4700 60  0000 C CNN
	1    1250 4700
	1    0    0    -1  
$EndComp
$Comp
L C C1
U 1 1 561B2617
P 1000 4700
F 0 "C1" H 1025 4800 50  0000 L CNN
F 1 "C" H 1025 4600 50  0000 L CNN
F 2 "Capacitors_SMD:C_0603_HandSoldering" H 1038 4550 30  0001 C CNN
F 3 "" H 1000 4700 60  0000 C CNN
	1    1000 4700
	1    0    0    -1  
$EndComp
$Comp
L GND #PWR01
U 1 1 561B2836
P 1250 4950
F 0 "#PWR01" H 1250 4700 50  0001 C CNN
F 1 "GND" H 1250 4800 50  0000 C CNN
F 2 "" H 1250 4950 60  0000 C CNN
F 3 "" H 1250 4950 60  0000 C CNN
	1    1250 4950
	1    0    0    -1  
$EndComp
$Comp
L GND #PWR02
U 1 1 561B29A6
P 2300 6250
F 0 "#PWR02" H 2300 6000 50  0001 C CNN
F 1 "GND" H 2300 6100 50  0000 C CNN
F 2 "" H 2300 6250 60  0000 C CNN
F 3 "" H 2300 6250 60  0000 C CNN
	1    2300 6250
	1    0    0    -1  
$EndComp
$Comp
L R R1
U 1 1 561B2B41
P 3050 6100
F 0 "R1" V 3130 6100 50  0000 C CNN
F 1 "10k" V 3050 6100 50  0000 C CNN
F 2 "Resistors_SMD:R_0603_HandSoldering" V 2980 6100 30  0001 C CNN
F 3 "" H 3050 6100 30  0000 C CNN
	1    3050 6100
	0    1    1    0   
$EndComp
$Comp
L PWR_FLAG #FLG03
U 1 1 561BC0F0
P 2050 6250
F 0 "#FLG03" H 2050 6345 50  0001 C CNN
F 1 "PWR_FLAG" H 2050 6430 50  0000 C CNN
F 2 "" H 2050 6250 60  0000 C CNN
F 3 "" H 2050 6250 60  0000 C CNN
	1    2050 6250
	1    0    0    -1  
$EndComp
$Comp
L CONN_02X05 P8
U 1 1 561F0AAA
P 3050 6450
F 0 "P8" H 3050 6750 50  0000 C CNN
F 1 "CONN_02X05" H 3050 6150 50  0000 C CNN
F 2 "Pin_Headers:Pin_Header_Straight_2x05" H 3050 5250 60  0001 C CNN
F 3 "" H 3050 5250 60  0000 C CNN
	1    3050 6450
	-1   0    0    -1  
$EndComp
Text Label 1400 3250 0    60   ~ 0
reset
Text Label 3550 6250 2    60   ~ 0
mosi
Text Label 3550 6450 2    60   ~ 0
reset
Text Label 3550 6550 2    60   ~ 0
sck
Text Label 3550 6650 2    60   ~ 0
miso
NoConn ~ 3300 6350
Text Label 2450 700  2    60   ~ 0
GND'
Text Label 2450 800  2    60   ~ 0
IR
Text Label 2450 900  2    60   ~ 0
b2
Text Label 2450 1000 2    60   ~ 0
b1
Text Label 1800 950  2    60   ~ 0
IR
Text Label 1800 1150 2    60   ~ 0
GND'
Text Label 2450 1400 2    60   ~ 0
vcc
Text Label 1800 750  2    60   ~ 0
vcc
Text Label 2750 2150 0    60   ~ 0
F'
Text Label 2450 2000 2    60   ~ 0
F'
Text Label 2750 1850 0    60   ~ 0
C'
Text Label 2450 1600 2    60   ~ 0
C'
Text Label 2750 2050 0    60   ~ 0
E'
Text Label 2450 1500 2    60   ~ 0
E'
Text Label 2750 1950 0    60   ~ 0
D'
Text Label 2450 1100 2    60   ~ 0
D'
Text Label 2750 1350 0    60   ~ 0
G'
Text Label 2450 1200 2    60   ~ 0
G'
Text Label 2450 1700 2    60   ~ 0
H'
Text Label 2750 1450 0    60   ~ 0
H'
Text Label 2450 2100 2    60   ~ 0
b4
Text Label 2450 2200 2    60   ~ 0
b3
Text Label 5050 2000 0    60   ~ 0
vcc
Text Label 2750 1650 0    60   ~ 0
A'
Text Label 2450 1900 2    60   ~ 0
A'
Text Label 2750 1750 0    60   ~ 0
B'
Text Label 2450 1800 2    60   ~ 0
B'
Entry Wire Line
	2450 2200 2550 2300
Entry Wire Line
	2450 2100 2550 2200
Entry Wire Line
	2450 2000 2550 2100
Entry Wire Line
	2450 1900 2550 2000
Entry Wire Line
	2450 1800 2550 1900
Entry Wire Line
	2450 1700 2550 1800
Entry Wire Line
	2450 1600 2550 1700
Entry Wire Line
	2450 1500 2550 1600
Entry Wire Line
	2450 1400 2550 1500
Entry Wire Line
	2450 1300 2550 1400
Entry Wire Line
	2450 1200 2550 1300
Entry Wire Line
	2450 1100 2550 1200
Entry Wire Line
	2450 1000 2550 1100
Entry Wire Line
	2450 900  2550 1000
Entry Wire Line
	2450 800  2550 900 
Entry Wire Line
	2450 700  2550 800 
Entry Wire Line
	2650 950  2750 1050
Entry Wire Line
	2650 850  2750 950 
Entry Wire Line
	2650 1050 2750 1150
Entry Wire Line
	2650 1150 2750 1250
Entry Wire Line
	2650 1250 2750 1350
Entry Wire Line
	2650 1350 2750 1450
Entry Wire Line
	2650 1550 2750 1650
Entry Wire Line
	2650 1650 2750 1750
Entry Wire Line
	2650 1750 2750 1850
Entry Wire Line
	2650 1850 2750 1950
Entry Wire Line
	2650 1950 2750 2050
Entry Wire Line
	2650 2050 2750 2150
Text Label 8450 2750 0    60   ~ 0
vcct
Text Label 6200 2000 2    60   ~ 0
vcct
Text Label 7150 2050 0    60   ~ 0
z1
Text Label 2450 1300 2    60   ~ 0
dot
Text Label 5050 2550 0    60   ~ 0
dot
NoConn ~ 2600 4800
$Comp
L GND #PWR04
U 1 1 5630EDF3
P 1400 4050
F 0 "#PWR04" H 1400 3800 50  0001 C CNN
F 1 "GND" H 1400 3900 50  0000 C CNN
F 2 "" H 1400 4050 60  0000 C CNN
F 3 "" H 1400 4050 60  0000 C CNN
	1    1400 4050
	1    0    0    -1  
$EndComp
$Comp
L ATMEGA8-AI IC1
U 1 1 56302E6F
P 2300 4550
F 0 "IC1" H 1550 5750 40  0000 L BNN
F 1 "ATMEGA8-AI" H 2800 3000 40  0000 L BNN
F 2 "Housings_QFP:TQFP-32_7x7mm_Pitch0.8mm" H 2300 4550 30  0000 C CIN
F 3 "" H 2300 4550 60  0000 C CNN
	1    2300 4550
	1    0    0    -1  
$EndComp
$Comp
L PWR_FLAG #FLG05
U 1 1 563152EB
P 1300 3150
F 0 "#FLG05" H 1300 3245 50  0001 C CNN
F 1 "PWR_FLAG" H 1300 3330 50  0000 C CNN
F 2 "" H 1300 3150 60  0000 C CNN
F 3 "" H 1300 3150 60  0000 C CNN
	1    1300 3150
	1    0    0    -1  
$EndComp
$Comp
L CONN_01X16 P3
U 1 1 5630EB79
P 4500 4300
F 0 "P3" H 4500 5150 50  0000 C CNN
F 1 "CONN_01X16" V 4600 4300 50  0000 C CNN
F 2 "Pin_Headers:Pin_Header_Straight_1x16" H 4500 4300 60  0001 C CNN
F 3 "" H 4500 4300 60  0000 C CNN
	1    4500 4300
	1    0    0    -1  
$EndComp
Entry Wire Line
	4000 3450 4100 3550
Entry Wire Line
	4000 3550 4100 3650
Entry Wire Line
	4000 3650 4100 3750
Entry Wire Line
	4000 3750 4100 3850
Entry Wire Line
	4000 3850 4100 3950
Entry Wire Line
	4000 3950 4100 4050
Entry Wire Line
	4000 4050 4100 4150
Entry Wire Line
	4000 4150 4100 4250
Entry Wire Line
	4000 4250 4100 4350
Entry Wire Line
	4000 4350 4100 4450
Entry Wire Line
	4000 4450 4100 4550
Entry Wire Line
	4000 4550 4100 4650
Entry Wire Line
	4000 4650 4100 4750
Entry Wire Line
	4000 4750 4100 4850
Entry Wire Line
	4000 4850 4100 4950
Entry Wire Line
	4000 4950 4100 5050
Entry Wire Line
	3550 3650 3650 3550
Entry Wire Line
	3550 3850 3650 3750
Entry Wire Line
	3550 3950 3650 3850
Entry Wire Line
	3550 4050 3650 3950
Entry Wire Line
	3550 4250 3650 4150
Entry Wire Line
	3550 4350 3650 4250
Entry Wire Line
	3550 4450 3650 4350
Entry Wire Line
	3550 4550 3650 4450
Entry Wire Line
	3550 4650 3650 4550
Entry Wire Line
	3550 4750 3650 4650
Entry Wire Line
	3550 4950 3650 4850
Entry Wire Line
	3550 5150 3650 5050
Entry Wire Line
	3550 5250 3650 5150
Entry Wire Line
	3550 5350 3650 5250
Entry Wire Line
	3550 5450 3650 5350
Entry Wire Line
	3550 5550 3650 5450
Entry Wire Line
	3550 5650 3650 5550
Entry Wire Line
	3550 5750 3650 5650
Entry Wire Line
	3550 5850 3650 5750
Text Label 4100 3550 0    60   ~ 0
b3_
Text Label 3350 4950 0    60   ~ 0
b3_
Text Label 3350 4250 0    60   ~ 0
b4_
Text Label 4100 3650 0    60   ~ 0
b4_
Text Label 3350 4350 0    60   ~ 0
F_
Text Label 4100 3750 0    60   ~ 0
F_
Text Label 3350 4450 0    60   ~ 0
A_
Text Label 4100 3850 0    60   ~ 0
A_
Text Label 3350 4550 0    60   ~ 0
B_
Text Label 4100 3950 0    60   ~ 0
B_
Text Label 3350 4650 0    60   ~ 0
H_
Text Label 4100 4050 0    60   ~ 0
H_
Text Label 3350 4750 0    60   ~ 0
C_
Text Label 4100 4150 0    60   ~ 0
C_
Text Label 3350 5150 0    60   ~ 0
E_
Text Label 4100 4250 0    60   ~ 0
E_
Text Label 3250 2700 0    60   ~ 0
+5V
Text Label 4100 4350 0    60   ~ 0
+5V
Text Label 4100 4450 0    60   ~ 0
DOT_
Text Label 3350 5250 0    60   ~ 0
DOT_
Text Label 4100 4550 0    60   ~ 0
G_
Text Label 3350 5450 0    60   ~ 0
G_
Text Label 4100 4650 0    60   ~ 0
D_
Text Label 3350 5550 0    60   ~ 0
D_
Text Label 4100 4750 0    60   ~ 0
b1_
Text Label 3350 5650 0    60   ~ 0
b1_
Entry Wire Line
	3550 6250 3650 6150
Entry Wire Line
	3550 6450 3650 6350
Entry Wire Line
	3550 6550 3650 6450
Entry Wire Line
	3550 6650 3650 6550
Text Label 2500 6250 0    60   ~ 0
+5V
$Comp
L GND #PWR06
U 1 1 5631DCEB
P 2800 6800
F 0 "#PWR06" H 2800 6550 50  0001 C CNN
F 1 "GND" H 2800 6650 50  0000 C CNN
F 2 "" H 2800 6800 60  0000 C CNN
F 3 "" H 2800 6800 60  0000 C CNN
	1    2800 6800
	1    0    0    -1  
$EndComp
Text Label 3350 3850 0    60   ~ 0
mosi
Text Label 3350 3950 0    60   ~ 0
miso
Text Label 3350 4050 0    60   ~ 0
sck
$Comp
L CONN_01X01 P5
U 1 1 5631FA85
P 4500 5250
F 0 "P5" H 4500 5350 50  0000 C CNN
F 1 "CONN_01X01" V 4600 5250 50  0000 C CNN
F 2 "Pin_Headers:Pin_Header_Straight_1x01" H 4500 5250 60  0001 C CNN
F 3 "" H 4500 5250 60  0000 C CNN
	1    4500 5250
	1    0    0    -1  
$EndComp
Entry Wire Line
	4000 5150 4100 5250
Text Label 4100 5250 0    60   ~ 0
INT0
Text Label 3350 5350 0    60   ~ 0
INT0
Text Label 4100 4850 0    60   ~ 0
b2_
Text Label 3350 5750 0    60   ~ 0
b2_
Text Label 4100 4950 0    60   ~ 0
IR_
Text Label 3350 5850 0    60   ~ 0
IR_
Text Label 4100 5050 0    60   ~ 0
GND
$Comp
L R R19
U 1 1 56323E73
P 6500 3700
F 0 "R19" V 6580 3700 50  0000 C CNN
F 1 "10k" V 6500 3700 50  0000 C CNN
F 2 "Resistors_SMD:R_0603_HandSoldering" V 6430 3700 30  0001 C CNN
F 3 "" H 6500 3700 30  0000 C CNN
	1    6500 3700
	1    0    0    -1  
$EndComp
$Comp
L R R21
U 1 1 56323F88
P 9300 4200
F 0 "R21" V 9380 4200 50  0000 C CNN
F 1 "33k" V 9300 4200 50  0000 C CNN
F 2 "Resistors_SMD:R_1206_HandSoldering" V 9230 4200 30  0001 C CNN
F 3 "" H 9300 4200 30  0000 C CNN
	1    9300 4200
	0    1    1    0   
$EndComp
$Comp
L MOC3021M U2
U 1 1 563240ED
P 7000 5750
F 0 "U2" H 6790 5940 50  0000 L CNN
F 1 "MOC3021M" H 7000 5950 50  0000 L CNN
F 2 "Housings_DIP:DIP-6_W7.62mm_LongPads" H 6800 5550 50  0000 L CIN
F 3 "" H 6975 5750 50  0000 L CNN
	1    7000 5750
	1    0    0    -1  
$EndComp
$Comp
L 4N25 U1
U 1 1 56324378
P 7000 4200
F 0 "U1" H 6800 4400 50  0000 L CNN
F 1 "4N25" H 7000 4400 50  0000 L CNN
F 2 "Housings_DIP:DIP-6_W7.62mm_LongPads" H 6800 4000 50  0000 L CIN
F 3 "" H 7000 4200 50  0000 L CNN
	1    7000 4200
	-1   0    0    -1  
$EndComp
$Comp
L TRIAC U3
U 1 1 563247CC
P 9150 5650
F 0 "U3" H 8900 6000 50  0000 C CNN
F 1 "TRIAC" H 8850 5400 50  0000 C CNN
F 2 "Transistors_TO-220:TO-220_Neutral123_Vertical" H 9150 5650 60  0001 C CNN
F 3 "" H 9150 5650 60  0000 C CNN
	1    9150 5650
	1    0    0    -1  
$EndComp
$Comp
L GND #PWR07
U 1 1 5632524C
P 6700 4450
F 0 "#PWR07" H 6700 4200 50  0001 C CNN
F 1 "GND" H 6700 4300 50  0000 C CNN
F 2 "" H 6700 4450 60  0000 C CNN
F 3 "" H 6700 4450 60  0000 C CNN
	1    6700 4450
	1    0    0    -1  
$EndComp
Text Label 6250 3500 0    60   ~ 0
+5V
$Comp
L R R22
U 1 1 56326D7E
P 9300 4750
F 0 "R22" V 9380 4750 50  0000 C CNN
F 1 "33k" V 9300 4750 50  0000 C CNN
F 2 "Resistors_SMD:R_1206_HandSoldering" V 9230 4750 30  0001 C CNN
F 3 "" H 9300 4750 30  0000 C CNN
	1    9300 4750
	0    1    1    0   
$EndComp
$Comp
L R R20
U 1 1 56327E21
P 8100 5250
F 0 "R20" V 8180 5250 50  0000 C CNN
F 1 "1k" V 8100 5250 50  0000 C CNN
F 2 "Resistors_SMD:R_0603_HandSoldering" V 8030 5250 30  0001 C CNN
F 3 "" H 8100 5250 30  0000 C CNN
	1    8100 5250
	0    1    1    0   
$EndComp
$Comp
L GND #PWR08
U 1 1 5632850B
P 6700 6050
F 0 "#PWR08" H 6700 5800 50  0001 C CNN
F 1 "GND" H 6700 5900 50  0000 C CNN
F 2 "" H 6700 6050 60  0000 C CNN
F 3 "" H 6700 6050 60  0000 C CNN
	1    6700 6050
	1    0    0    -1  
$EndComp
$Comp
L CONN_01X01 P2
U 1 1 56328C86
P 6100 4200
F 0 "P2" H 6100 4300 50  0000 C CNN
F 1 "CONN_01X01" V 6200 4200 50  0000 C CNN
F 2 "Pin_Headers:Pin_Header_Straight_1x01" H 6100 4200 60  0001 C CNN
F 3 "" H 6100 4200 60  0000 C CNN
	1    6100 4200
	-1   0    0    1   
$EndComp
$Comp
L R R15
U 1 1 56328DB4
P 5850 5650
F 0 "R15" V 5930 5650 50  0000 C CNN
F 1 "220" V 5850 5650 50  0000 C CNN
F 2 "Resistors_SMD:R_0603_HandSoldering" V 5780 5650 30  0001 C CNN
F 3 "" H 5850 5650 30  0000 C CNN
	1    5850 5650
	0    1    1    0   
$EndComp
$Comp
L LED D3
U 1 1 56328E45
P 6350 5650
F 0 "D3" H 6350 5750 50  0000 C CNN
F 1 "LED" H 6350 5550 50  0000 C CNN
F 2 "LEDs:LED-3MM" H 6350 5650 60  0001 C CNN
F 3 "" H 6350 5650 60  0000 C CNN
	1    6350 5650
	-1   0    0    1   
$EndComp
Wire Wire Line
	3900 950  3800 950 
Wire Wire Line
	3900 1050 3800 1050
Wire Wire Line
	3900 1150 3800 1150
Wire Wire Line
	3900 1350 3800 1350
Wire Wire Line
	3900 1450 3800 1450
Wire Wire Line
	3900 1550 3800 1550
Wire Wire Line
	3900 1650 3800 1650
Wire Wire Line
	3900 1750 3800 1750
Wire Wire Line
	5600 950  5700 950 
Wire Wire Line
	5600 1050 5700 1050
Wire Wire Line
	5600 1150 5700 1150
Wire Wire Line
	5600 1250 5700 1250
Wire Wire Line
	5600 1350 5700 1350
Wire Wire Line
	5600 1450 5700 1450
Wire Wire Line
	5600 1550 5700 1550
Wire Wire Line
	5600 1650 5700 1650
Wire Wire Line
	5600 1750 5700 1750
Wire Wire Line
	5900 950  6000 950 
Wire Wire Line
	6000 1050 5900 1050
Wire Wire Line
	6000 1150 5900 1150
Wire Wire Line
	6000 1250 5900 1250
Wire Wire Line
	6000 1350 5900 1350
Wire Wire Line
	6000 1450 5900 1450
Wire Wire Line
	6000 1550 5900 1550
Wire Wire Line
	6000 1650 5900 1650
Wire Wire Line
	6000 1750 5900 1750
Wire Wire Line
	7700 950  7800 950 
Wire Wire Line
	7700 1050 7800 1050
Wire Wire Line
	7700 1150 7800 1150
Wire Wire Line
	7700 1250 7800 1250
Wire Wire Line
	7700 1350 7800 1350
Wire Wire Line
	7700 1450 7800 1450
Wire Wire Line
	7700 1550 7800 1550
Wire Wire Line
	7700 1650 7800 1650
Wire Wire Line
	7700 1750 7800 1750
Wire Bus Line
	3700 800  3700 2050
Wire Bus Line
	7900 800  7900 2500
Wire Bus Line
	5800 800  5800 1650
Wire Wire Line
	3900 1250 3800 1250
Wire Wire Line
	3550 1650 3600 1650
Wire Wire Line
	3550 1750 3600 1750
Wire Wire Line
	3550 1850 3600 1850
Wire Wire Line
	3550 1950 3600 1950
Wire Wire Line
	3550 2050 3600 2050
Wire Wire Line
	3550 2150 3600 2150
Wire Wire Line
	3550 1350 3600 1350
Wire Wire Line
	3550 1450 3600 1450
Connection ~ 8750 1700
Connection ~ 8750 2150
Wire Wire Line
	8100 950  8000 950 
Wire Wire Line
	8100 1400 8000 1400
Wire Wire Line
	8100 1850 8000 1850
Wire Wire Line
	8100 2300 8000 2300
Wire Wire Line
	8400 950  8550 950 
Wire Wire Line
	8400 1400 8550 1400
Wire Wire Line
	8400 1850 8550 1850
Wire Wire Line
	8400 2300 8550 2300
Wire Wire Line
	8350 2600 8000 2600
Wire Wire Line
	8350 2150 8000 2150
Wire Wire Line
	8350 1700 8000 1700
Wire Wire Line
	8350 1250 8000 1250
Connection ~ 8750 1250
Connection ~ 8750 2600
Wire Wire Line
	3200 1750 3250 1750
Wire Wire Line
	7000 2050 7150 2050
Wire Wire Line
	6700 2050 6500 2050
Wire Wire Line
	7000 2250 7150 2250
Wire Wire Line
	6700 2250 6500 2250
Wire Wire Line
	7000 2450 7150 2450
Wire Wire Line
	6700 2450 6500 2450
Wire Wire Line
	5600 2400 5650 2400
Wire Wire Line
	5950 2400 6000 2400
Wire Wire Line
	5500 2000 5650 2000
Wire Wire Line
	5500 2550 5600 2550
Wire Wire Line
	5600 2550 5600 2400
Wire Wire Line
	8750 1250 8750 2750
Connection ~ 6000 2000
Connection ~ 5600 2000
Wire Wire Line
	1000 4250 1400 4250
Wire Wire Line
	1400 4450 1250 4450
Wire Wire Line
	1000 4250 1000 4550
Connection ~ 1250 4250
Wire Wire Line
	1250 4450 1250 4550
Wire Wire Line
	1000 4850 1250 4850
Wire Wire Line
	1250 4850 1250 4950
Wire Wire Line
	2300 6150 2300 6250
Wire Wire Line
	3300 6250 3550 6250
Wire Wire Line
	3300 6450 3550 6450
Wire Wire Line
	3300 6550 3550 6550
Wire Wire Line
	3300 6650 3550 6650
Wire Wire Line
	1400 3250 1400 3550
Wire Wire Line
	2250 700  2450 700 
Wire Wire Line
	2250 800  2450 800 
Wire Wire Line
	2250 900  2450 900 
Wire Wire Line
	2250 1000 2450 1000
Wire Wire Line
	2250 1100 2450 1100
Wire Wire Line
	2250 1200 2450 1200
Wire Wire Line
	2250 1300 2450 1300
Wire Wire Line
	2250 1400 2450 1400
Wire Wire Line
	2250 1500 2450 1500
Wire Wire Line
	2250 1600 2450 1600
Wire Wire Line
	2250 1700 2450 1700
Wire Wire Line
	2250 1800 2450 1800
Wire Wire Line
	2250 1900 2450 1900
Wire Wire Line
	2250 2000 2450 2000
Wire Wire Line
	2250 2100 2450 2100
Wire Wire Line
	2450 2200 2250 2200
Wire Wire Line
	1600 950  1800 950 
Wire Wire Line
	1600 1150 1800 1150
Wire Wire Line
	1600 750  1800 750 
Wire Wire Line
	2750 2150 3250 2150
Wire Wire Line
	2750 1850 3250 1850
Wire Wire Line
	2750 2050 3250 2050
Wire Wire Line
	2750 1950 3250 1950
Wire Wire Line
	2750 1350 3250 1350
Wire Wire Line
	2750 1450 3250 1450
Wire Wire Line
	2750 1150 3600 1150
Wire Wire Line
	2750 1250 3600 1250
Wire Wire Line
	5200 2000 5050 2000
Wire Wire Line
	2750 1050 3600 1050
Wire Wire Line
	2750 950  3600 950 
Wire Wire Line
	2750 1650 3250 1650
Wire Wire Line
	2900 1750 2750 1750
Wire Bus Line
	2650 800  2650 2050
Wire Bus Line
	2550 800  7900 800 
Wire Bus Line
	2550 800  2550 2300
Wire Wire Line
	5200 2550 5050 2550
Wire Wire Line
	5950 2000 6200 2000
Wire Wire Line
	8750 2750 8450 2750
Wire Wire Line
	2250 6150 2350 6150
Connection ~ 2300 6150
Connection ~ 2300 6250
Wire Wire Line
	1400 3750 1300 3750
Wire Wire Line
	1300 3750 1300 3150
Wire Wire Line
	1100 3150 2450 3150
Wire Wire Line
	2250 3150 2250 3250
Wire Wire Line
	1400 3950 1400 4050
Wire Wire Line
	4300 3550 4100 3550
Wire Wire Line
	4300 3650 4100 3650
Wire Wire Line
	4300 3750 4100 3750
Wire Wire Line
	4300 3850 4100 3850
Wire Wire Line
	4300 3950 4100 3950
Wire Wire Line
	4300 4050 4100 4050
Wire Wire Line
	4300 4150 4100 4150
Wire Wire Line
	4300 4250 4100 4250
Wire Wire Line
	4300 4350 4100 4350
Wire Wire Line
	4300 4450 4100 4450
Wire Wire Line
	4300 4550 4100 4550
Wire Wire Line
	4300 4650 4100 4650
Wire Wire Line
	4300 4750 4100 4750
Wire Wire Line
	4300 4850 4100 4850
Wire Wire Line
	4300 4950 4100 4950
Wire Wire Line
	4300 5050 4100 5050
Wire Wire Line
	3300 3650 3550 3650
Wire Wire Line
	3300 3850 3550 3850
Wire Wire Line
	3300 3950 3550 3950
Wire Wire Line
	3300 4050 3550 4050
Wire Wire Line
	3300 4250 3550 4250
Wire Wire Line
	3300 4350 3550 4350
Wire Wire Line
	3300 4450 3550 4450
Wire Wire Line
	3300 4550 3550 4550
Wire Wire Line
	3300 4650 3550 4650
Wire Wire Line
	3300 4750 3550 4750
Wire Wire Line
	3300 4950 3550 4950
Wire Wire Line
	3300 5150 3550 5150
Wire Wire Line
	3300 5250 3550 5250
Wire Wire Line
	3300 5350 3550 5350
Wire Wire Line
	3300 5450 3550 5450
Wire Wire Line
	3300 5550 3550 5550
Wire Wire Line
	3300 5650 3550 5650
Wire Wire Line
	3300 5750 3550 5750
Wire Wire Line
	3300 5850 3550 5850
Wire Bus Line
	3650 3450 3650 6550
Wire Bus Line
	4000 3450 4000 5150
Wire Wire Line
	2300 6250 2050 6250
Wire Wire Line
	2800 6350 2800 6800
Connection ~ 2800 6550
Connection ~ 2800 6450
Wire Wire Line
	2800 6250 2500 6250
Connection ~ 2800 6650
Wire Bus Line
	3650 3450 4000 3450
Wire Wire Line
	4300 5250 4100 5250
Wire Wire Line
	6700 4300 6700 4450
Wire Wire Line
	6300 4200 6700 4200
Wire Wire Line
	6500 4200 6500 3850
Wire Wire Line
	6250 3500 6650 3500
Wire Wire Line
	6500 3500 6500 3550
Wire Wire Line
	8550 4200 9150 4200
Wire Wire Line
	9450 4200 9850 4200
Wire Wire Line
	9850 4750 9450 4750
Wire Wire Line
	9150 5900 9850 5900
Wire Wire Line
	9850 5900 9850 4850
Wire Wire Line
	9650 5250 9650 4200
Connection ~ 9650 4200
Wire Wire Line
	7300 5850 8650 5850
Wire Wire Line
	7300 5250 7300 5650
Connection ~ 9150 5250
Wire Wire Line
	7300 5250 7950 5250
Wire Wire Line
	8250 5250 9650 5250
Wire Wire Line
	6700 5850 6700 6050
Connection ~ 6500 4200
Wire Wire Line
	6000 5650 6150 5650
Wire Wire Line
	6550 5650 6700 5650
Wire Wire Line
	5700 5650 5350 5650
Text Label 3350 3650 0    60   ~ 0
pwm
Text Label 5350 5650 0    60   ~ 0
pwm
$Comp
L D D4
U 1 1 5632C019
P 8200 4000
F 0 "D4" H 8200 4100 50  0000 C CNN
F 1 "D" H 8200 3900 50  0000 C CNN
F 2 "Diodes_ThroughHole:Diode_DO-35_SOD27_Horizontal_RM10" H 8200 4000 60  0001 C CNN
F 3 "" H 8200 4000 60  0000 C CNN
	1    8200 4000
	0    1    1    0   
$EndComp
$Comp
L D D6
U 1 1 5632C0CE
P 8550 4000
F 0 "D6" H 8550 4100 50  0000 C CNN
F 1 "D" H 8550 3900 50  0000 C CNN
F 2 "Diodes_ThroughHole:Diode_DO-35_SOD27_Horizontal_RM10" H 8550 4000 60  0001 C CNN
F 3 "" H 8550 4000 60  0000 C CNN
	1    8550 4000
	0    1    1    0   
$EndComp
$Comp
L D D5
U 1 1 5632C159
P 8200 4500
F 0 "D5" H 8200 4600 50  0000 C CNN
F 1 "D" H 8200 4400 50  0000 C CNN
F 2 "Diodes_ThroughHole:Diode_DO-35_SOD27_Horizontal_RM10" H 8200 4500 60  0001 C CNN
F 3 "" H 8200 4500 60  0000 C CNN
	1    8200 4500
	0    1    1    0   
$EndComp
$Comp
L D D7
U 1 1 5632C1F8
P 8550 4500
F 0 "D7" H 8550 4600 50  0000 C CNN
F 1 "D" H 8550 4400 50  0000 C CNN
F 2 "Diodes_ThroughHole:Diode_DO-35_SOD27_Horizontal_RM10" H 8550 4500 60  0001 C CNN
F 3 "" H 8550 4500 60  0000 C CNN
	1    8550 4500
	0    1    1    0   
$EndComp
Wire Wire Line
	7300 3850 8550 3850
Wire Wire Line
	7300 3850 7300 4100
Connection ~ 8200 3850
Wire Wire Line
	7300 4300 7300 4650
Wire Wire Line
	7300 4650 8550 4650
Connection ~ 8200 4650
Wire Wire Line
	8200 4150 8200 4350
Wire Wire Line
	8550 4150 8550 4350
Connection ~ 8550 4200
Wire Wire Line
	8200 4300 9150 4300
Connection ~ 8200 4300
Wire Wire Line
	9150 4300 9150 4750
$Comp
L CONN_01X01 P4
U 1 1 5632356F
P 10050 4200
F 0 "P4" H 10050 4300 50  0000 C CNN
F 1 "CONN_01X01" V 10150 4200 50  0000 C CNN
F 2 "Wire_Pads:SolderWirePad_single_2mmDrill" H 10050 4200 60  0001 C CNN
F 3 "" H 10050 4200 60  0000 C CNN
	1    10050 4200
	1    0    0    -1  
$EndComp
$Comp
L CONN_01X01 P6
U 1 1 56323622
P 10050 4450
F 0 "P6" H 10050 4550 50  0000 C CNN
F 1 "CONN_01X01" V 10150 4450 50  0000 C CNN
F 2 "Wire_Pads:SolderWirePad_single_2mmDrill" H 10050 4450 60  0001 C CNN
F 3 "" H 10050 4450 60  0000 C CNN
	1    10050 4450
	1    0    0    -1  
$EndComp
$Comp
L CONN_01X01 P9
U 1 1 56323705
P 10050 4850
F 0 "P9" H 10050 4950 50  0000 C CNN
F 1 "CONN_01X01" V 10150 4850 50  0000 C CNN
F 2 "Wire_Pads:SolderWirePad_single_2mmDrill" H 10050 4850 60  0001 C CNN
F 3 "" H 10050 4850 60  0000 C CNN
	1    10050 4850
	1    0    0    -1  
$EndComp
$Comp
L CONN_01X01 P7
U 1 1 5632389F
P 10050 4650
F 0 "P7" H 10050 4750 50  0000 C CNN
F 1 "CONN_01X01" V 10150 4650 50  0000 C CNN
F 2 "Wire_Pads:SolderWirePad_single_2mmDrill" H 10050 4650 60  0001 C CNN
F 3 "" H 10050 4650 60  0000 C CNN
	1    10050 4650
	1    0    0    -1  
$EndComp
Wire Wire Line
	9850 4450 9850 4750
Connection ~ 9850 4650
$Comp
L CONN_01X01 P11
U 1 1 56324839
P 6850 3500
F 0 "P11" H 6850 3600 50  0000 C CNN
F 1 "CONN_01X01" V 6950 3500 50  0000 C CNN
F 2 "Pin_Headers:Pin_Header_Straight_1x01" H 6850 3500 60  0001 C CNN
F 3 "" H 6850 3500 60  0000 C CNN
	1    6850 3500
	1    0    0    -1  
$EndComp
$Comp
L CONN_01X01 P10
U 1 1 5632496B
P 2650 3150
F 0 "P10" H 2650 3250 50  0000 C CNN
F 1 "CONN_01X01" V 2750 3150 50  0000 C CNN
F 2 "Pin_Headers:Pin_Header_Straight_1x01" H 2650 3150 60  0001 C CNN
F 3 "" H 2650 3150 60  0000 C CNN
	1    2650 3150
	1    0    0    -1  
$EndComp
Connection ~ 6500 3500
Wire Wire Line
	6650 3500 6650 3250
Connection ~ 2250 3150
Wire Wire Line
	2900 6100 2750 6100
Wire Wire Line
	2750 6100 2750 6250
Connection ~ 2750 6250
Wire Wire Line
	3200 6100 3400 6100
Wire Wire Line
	3400 6100 3400 6450
Connection ~ 3400 6450
Wire Wire Line
	2350 3250 2350 3150
Connection ~ 2350 3150
$Comp
L C C3
U 1 1 563296F8
P 1100 3450
F 0 "C3" H 1125 3550 50  0000 L CNN
F 1 "100nF" H 1125 3350 50  0000 L CNN
F 2 "Capacitors_SMD:C_0603_HandSoldering" H 1138 3300 30  0001 C CNN
F 3 "" H 1100 3450 60  0000 C CNN
	1    1100 3450
	1    0    0    -1  
$EndComp
Wire Wire Line
	1100 3300 1100 3150
Connection ~ 1300 3150
Wire Wire Line
	1100 3600 1100 3950
Wire Wire Line
	1100 3950 1400 3950
NoConn ~ 3300 4850
NoConn ~ 3300 3550
NoConn ~ 6700 4100
$Comp
L CONN_01X01 P12
U 1 1 5632B610
P 3450 3200
F 0 "P12" H 3450 3300 50  0000 C CNN
F 1 "CONN_01X01" V 3550 3200 50  0000 C CNN
F 2 "Pin_Headers:Pin_Header_Straight_1x01" H 3450 3200 60  0001 C CNN
F 3 "" H 3450 3200 60  0000 C CNN
	1    3450 3200
	0    -1   -1   0   
$EndComp
Wire Wire Line
	3300 3750 3450 3750
Wire Wire Line
	3450 3750 3450 3400
$EndSCHEMATC
