%!PS-Adobe-3.0
%%Creator: PCBNEW
%%CreationDate: Mon Nov  2 01:16:28 2015
%%Title: /home/na/workspace/momclock/pdf/momclock-B_Cu.ps
%%Pages: 1
%%PageOrder: Ascend
%%BoundingBox: 0 0 596 842
%%DocumentMedia: A4 595 842 0 () ()
%%Orientation: Landscape
%%EndComments
%%BeginProlog
/line { newpath moveto lineto stroke } bind def
/cir0 { newpath 0 360 arc stroke } bind def
/cir1 { newpath 0 360 arc gsave fill grestore stroke } bind def
/cir2 { newpath 0 360 arc gsave fill grestore stroke } bind def
/arc0 { newpath arc stroke } bind def
/arc1 { newpath 4 index 4 index moveto arc closepath gsave fill
    grestore stroke } bind def
/arc2 { newpath 4 index 4 index moveto arc closepath gsave fill
    grestore stroke } bind def
/poly0 { stroke } bind def
/poly1 { closepath gsave fill grestore stroke } bind def
/poly2 { closepath gsave fill grestore stroke } bind def
/rect0 { rectstroke } bind def
/rect1 { rectfill } bind def
/rect2 { rectfill } bind def
/linemode0 { 0 setlinecap 0 setlinejoin 0 setlinewidth } bind def
/linemode1 { 1 setlinecap 1 setlinejoin } bind def
/dashedline { [200] 100 setdash } bind def
/solidline { [] 0 setdash } bind def
/phantomshow { moveto
    /KicadFont findfont 0.000001 scalefont setfont
    show } bind def
/textshow { gsave
    findfont exch scalefont setfont concat 1 scale 0 0 moveto show
    } bind def
/reencodefont {
  findfont dup length dict begin
  { 1 index /FID ne
    { def }
    { pop pop } ifelse
  } forall
  /Encoding ISOLatin1Encoding def
  currentdict
  end } bind def
/KicadFont /Helvetica reencodefont definefont pop
/KicadFont-Bold /Helvetica-Bold reencodefont definefont pop
/KicadFont-Oblique /Helvetica-Oblique reencodefont definefont pop
/KicadFont-BoldOblique /Helvetica-BoldOblique reencodefont definefont pop
%%EndProlog
%%Page: 1 1
%%BeginPageSetup
gsave
0.0072 0.0072 scale
linemode1
82680 0 translate 90 rotate
39.3701 setlinewidth
%%EndPageSetup
0 0 0 setrgbcolor
0 0 0 setrgbcolor
39.3701 setlinewidth
newpath
80055 36380 moveto
47255 36380 lineto
stroke
0 0 0 setrgbcolor
newpath
80080 14680 moveto
47255 14680 lineto
stroke
0 0 0 setrgbcolor
newpath
47255 14680 moveto
47255 36380 lineto
stroke
0 0 0 setrgbcolor
newpath
80055 14680 moveto
80055 36380 lineto
stroke
0 0 0 setrgbcolor
newpath
44780 14530 moveto
44780 36230 lineto
stroke
0 0 0 setrgbcolor
newpath
11980 14530 moveto
11980 36230 lineto
stroke
0 0 0 setrgbcolor
newpath
44805 14530 moveto
11980 14530 lineto
stroke
0 0 0 setrgbcolor
newpath
44780 36230 moveto
11980 36230 lineto
stroke
0 0 0 setrgbcolor
newpath
44455 59830 moveto
11655 59830 lineto
stroke
0 0 0 setrgbcolor
newpath
44480 38130 moveto
11655 38130 lineto
stroke
0 0 0 setrgbcolor
newpath
11655 38130 moveto
11655 59830 lineto
stroke
0 0 0 setrgbcolor
newpath
44455 38130 moveto
44455 59830 lineto
stroke
0 0 0 setrgbcolor
newpath
79730 38280 moveto
79730 59980 lineto
stroke
0 0 0 setrgbcolor
newpath
46930 38280 moveto
46930 59980 lineto
stroke
0 0 0 setrgbcolor
newpath
79755 38280 moveto
46930 38280 lineto
stroke
0 0 0 setrgbcolor
newpath
79730 59980 moveto
46930 59980 lineto
stroke
0 0 0 setrgbcolor
0 setlinewidth
newpath
66295 26640 moveto
66295 27520 lineto
65415 27520 lineto
65415 26640 lineto
66295 26640 lineto
poly1
0 0 0 setrgbcolor
newpath
69995 26640 moveto
69995 27520 lineto
69115 27520 lineto
69115 26640 lineto
69995 26640 lineto
poly1
0 0 0 setrgbcolor
newpath
69995 21840 moveto
69995 22720 lineto
69115 22720 lineto
69115 21840 lineto
69995 21840 lineto
poly1
0 0 0 setrgbcolor
newpath
62895 18140 moveto
62895 19020 lineto
62015 19020 lineto
62015 18140 lineto
62895 18140 lineto
poly1
0 0 0 setrgbcolor
52855 35080 886 cir1
39.3701 setlinewidth
0 0 0 setrgbcolor
0 setlinewidth
59455 35080 886 cir1
39.3701 setlinewidth
0 0 0 setrgbcolor
0 setlinewidth
62955 35080 886 cir1
39.3701 setlinewidth
0 0 0 setrgbcolor
0 setlinewidth
56255 35080 886 cir1
39.3701 setlinewidth
0 0 0 setrgbcolor
0 setlinewidth
72454.8 31879 334.5 cir1
39.3701 setlinewidth
0 0 0 setrgbcolor
0 setlinewidth
newpath
76120.3 32213.5 moveto
76120.3 31544.5 lineto
76789.3 31544.5 lineto
76789.3 32213.5 lineto
76120.3 32213.5 lineto
poly1
0 0 0 setrgbcolor
76455.2 28481 334.5 cir1
39.3701 setlinewidth
0 0 0 setrgbcolor
0 setlinewidth
newpath
72789.7 28146.5 moveto
72789.7 28815.5 lineto
72120.7 28815.5 lineto
72120.7 28146.5 lineto
72789.7 28146.5 lineto
poly1
0 0 0 setrgbcolor
72454.8 30779 334.5 cir1
39.3701 setlinewidth
0 0 0 setrgbcolor
0 setlinewidth
newpath
76120.3 31113.5 moveto
76120.3 30444.5 lineto
76789.3 30444.5 lineto
76789.3 31113.5 lineto
76120.3 31113.5 lineto
poly1
0 0 0 setrgbcolor
76455.2 29681 334.5 cir1
39.3701 setlinewidth
0 0 0 setrgbcolor
0 setlinewidth
newpath
72789.7 29346.5 moveto
72789.7 30015.5 lineto
72120.7 30015.5 lineto
72120.7 29346.5 lineto
72789.7 29346.5 lineto
poly1
0 0 0 setrgbcolor
591 setlinewidth
newpath
50951.5 30780 moveto
50558.5 30780 lineto
stroke
0 0 0 setrgbcolor
newpath
50951.5 29780 moveto
50558.5 29780 lineto
stroke
0 0 0 setrgbcolor
newpath
50951.5 31780 moveto
50558.5 31780 lineto
stroke
0 0 0 setrgbcolor
629.921 setlinewidth
newpath
57692.8 29780 moveto
57417.2 29780 lineto
stroke
0 0 0 setrgbcolor
newpath
57692.8 30780 moveto
57417.2 30780 lineto
stroke
0 0 0 setrgbcolor
newpath
57692.8 31780 moveto
57417.2 31780 lineto
stroke
0 0 0 setrgbcolor
newpath
54692.8 31780 moveto
54417.2 31780 lineto
stroke
0 0 0 setrgbcolor
newpath
54692.8 30780 moveto
54417.2 30780 lineto
stroke
0 0 0 setrgbcolor
newpath
54692.8 29780 moveto
54417.2 29780 lineto
stroke
0 0 0 setrgbcolor
newpath
70792.8 29680 moveto
70517.2 29680 lineto
stroke
0 0 0 setrgbcolor
newpath
70792.8 30680 moveto
70517.2 30680 lineto
stroke
0 0 0 setrgbcolor
newpath
70792.8 31680 moveto
70517.2 31680 lineto
stroke
0 0 0 setrgbcolor
newpath
67792.8 31680 moveto
67517.2 31680 lineto
stroke
0 0 0 setrgbcolor
newpath
67792.8 30680 moveto
67517.2 30680 lineto
stroke
0 0 0 setrgbcolor
newpath
67792.8 29680 moveto
67517.2 29680 lineto
stroke
0 0 0 setrgbcolor
0 setlinewidth
newpath
62895 29540 moveto
62895 30420 lineto
62015 30420 lineto
62015 29540 lineto
62895 29540 lineto
poly1
0 0 0 setrgbcolor
newpath
59648.7 30173.7 moveto
58861.3 30173.7 lineto
58861.3 29386.3 lineto
59648.7 29386.3 lineto
59648.7 30173.7 lineto
poly1
0 0 0 setrgbcolor
60255 29780 393.701 cir1
39.3701 setlinewidth
0 0 0 setrgbcolor
0 setlinewidth
newpath
71015 26220 moveto
71015 25540 lineto
71695 25540 lineto
71695 26220 lineto
71015 26220 lineto
poly1
0 0 0 setrgbcolor
680 setlinewidth
newpath
72355 25880 moveto
72355 25880 lineto
stroke
0 0 0 setrgbcolor
newpath
71355 24880 moveto
71355 24880 lineto
stroke
0 0 0 setrgbcolor
newpath
72355 24880 moveto
72355 24880 lineto
stroke
0 0 0 setrgbcolor
newpath
71355 23880 moveto
71355 23880 lineto
stroke
0 0 0 setrgbcolor
newpath
72355 23880 moveto
72355 23880 lineto
stroke
0 0 0 setrgbcolor
newpath
71355 22880 moveto
71355 22880 lineto
stroke
0 0 0 setrgbcolor
newpath
72355 22880 moveto
72355 22880 lineto
stroke
0 0 0 setrgbcolor
newpath
71355 21880 moveto
71355 21880 lineto
stroke
0 0 0 setrgbcolor
newpath
72355 21880 moveto
72355 21880 lineto
stroke
0 0 0 setrgbcolor
0 setlinewidth
newpath
71595 16580 moveto
70915 16580 lineto
70915 15780 lineto
71595 15780 lineto
71595 16580 lineto
poly1
0 0 0 setrgbcolor
680 setlinewidth
newpath
70255 16240 moveto
70255 16120 lineto
stroke
0 0 0 setrgbcolor
newpath
69255 16240 moveto
69255 16120 lineto
stroke
0 0 0 setrgbcolor
newpath
68255 16240 moveto
68255 16120 lineto
stroke
0 0 0 setrgbcolor
newpath
67255 16240 moveto
67255 16120 lineto
stroke
0 0 0 setrgbcolor
newpath
66255 16240 moveto
66255 16120 lineto
stroke
0 0 0 setrgbcolor
newpath
65255 16240 moveto
65255 16120 lineto
stroke
0 0 0 setrgbcolor
newpath
64255 16240 moveto
64255 16120 lineto
stroke
0 0 0 setrgbcolor
newpath
63255 16240 moveto
63255 16120 lineto
stroke
0 0 0 setrgbcolor
newpath
62255 16240 moveto
62255 16120 lineto
stroke
0 0 0 setrgbcolor
newpath
61255 16240 moveto
61255 16120 lineto
stroke
0 0 0 setrgbcolor
newpath
60255 16240 moveto
60255 16120 lineto
stroke
0 0 0 setrgbcolor
newpath
59255 16240 moveto
59255 16120 lineto
stroke
0 0 0 setrgbcolor
newpath
58255 16240 moveto
58255 16120 lineto
stroke
0 0 0 setrgbcolor
newpath
57255 16240 moveto
57255 16120 lineto
stroke
0 0 0 setrgbcolor
newpath
56255 16240 moveto
56255 16120 lineto
stroke
0 0 0 setrgbcolor
0 setlinewidth
newpath
36320 16430 moveto
35640 16430 lineto
35640 15630 lineto
36320 15630 lineto
36320 16430 lineto
poly1
0 0 0 setrgbcolor
680 setlinewidth
newpath
34980 16090 moveto
34980 15970 lineto
stroke
0 0 0 setrgbcolor
newpath
33980 16090 moveto
33980 15970 lineto
stroke
0 0 0 setrgbcolor
newpath
32980 16090 moveto
32980 15970 lineto
stroke
0 0 0 setrgbcolor
newpath
31980 16090 moveto
31980 15970 lineto
stroke
0 0 0 setrgbcolor
newpath
30980 16090 moveto
30980 15970 lineto
stroke
0 0 0 setrgbcolor
newpath
29980 16090 moveto
29980 15970 lineto
stroke
0 0 0 setrgbcolor
newpath
28980 16090 moveto
28980 15970 lineto
stroke
0 0 0 setrgbcolor
newpath
27980 16090 moveto
27980 15970 lineto
stroke
0 0 0 setrgbcolor
newpath
26980 16090 moveto
26980 15970 lineto
stroke
0 0 0 setrgbcolor
newpath
25980 16090 moveto
25980 15970 lineto
stroke
0 0 0 setrgbcolor
newpath
24980 16090 moveto
24980 15970 lineto
stroke
0 0 0 setrgbcolor
newpath
23980 16090 moveto
23980 15970 lineto
stroke
0 0 0 setrgbcolor
newpath
22980 16090 moveto
22980 15970 lineto
stroke
0 0 0 setrgbcolor
newpath
21980 16090 moveto
21980 15970 lineto
stroke
0 0 0 setrgbcolor
newpath
20980 16090 moveto
20980 15970 lineto
stroke
0 0 0 setrgbcolor
0 setlinewidth
newpath
35740 26070 moveto
35740 25390 lineto
36420 25390 lineto
36420 26070 lineto
35740 26070 lineto
poly1
0 0 0 setrgbcolor
680 setlinewidth
newpath
37080 25730 moveto
37080 25730 lineto
stroke
0 0 0 setrgbcolor
newpath
36080 24730 moveto
36080 24730 lineto
stroke
0 0 0 setrgbcolor
newpath
37080 24730 moveto
37080 24730 lineto
stroke
0 0 0 setrgbcolor
newpath
36080 23730 moveto
36080 23730 lineto
stroke
0 0 0 setrgbcolor
newpath
37080 23730 moveto
37080 23730 lineto
stroke
0 0 0 setrgbcolor
newpath
36080 22730 moveto
36080 22730 lineto
stroke
0 0 0 setrgbcolor
newpath
37080 22730 moveto
37080 22730 lineto
stroke
0 0 0 setrgbcolor
newpath
36080 21730 moveto
36080 21730 lineto
stroke
0 0 0 setrgbcolor
newpath
37080 21730 moveto
37080 21730 lineto
stroke
0 0 0 setrgbcolor
0 setlinewidth
newpath
24373.7 30023.7 moveto
23586.3 30023.7 lineto
23586.3 29236.3 lineto
24373.7 29236.3 lineto
24373.7 30023.7 lineto
poly1
0 0 0 setrgbcolor
24980 29630 393.701 cir1
39.3701 setlinewidth
0 0 0 setrgbcolor
0 setlinewidth
newpath
27620 29390 moveto
27620 30270 lineto
26740 30270 lineto
26740 29390 lineto
27620 29390 lineto
poly1
0 0 0 setrgbcolor
629.921 setlinewidth
newpath
35517.8 29530 moveto
35242.2 29530 lineto
stroke
0 0 0 setrgbcolor
newpath
35517.8 30530 moveto
35242.2 30530 lineto
stroke
0 0 0 setrgbcolor
newpath
35517.8 31530 moveto
35242.2 31530 lineto
stroke
0 0 0 setrgbcolor
newpath
32517.8 31530 moveto
32242.2 31530 lineto
stroke
0 0 0 setrgbcolor
newpath
32517.8 30530 moveto
32242.2 30530 lineto
stroke
0 0 0 setrgbcolor
newpath
32517.8 29530 moveto
32242.2 29530 lineto
stroke
0 0 0 setrgbcolor
newpath
22417.8 29630 moveto
22142.2 29630 lineto
stroke
0 0 0 setrgbcolor
newpath
22417.8 30630 moveto
22142.2 30630 lineto
stroke
0 0 0 setrgbcolor
newpath
22417.8 31630 moveto
22142.2 31630 lineto
stroke
0 0 0 setrgbcolor
newpath
19417.8 31630 moveto
19142.2 31630 lineto
stroke
0 0 0 setrgbcolor
newpath
19417.8 30630 moveto
19142.2 30630 lineto
stroke
0 0 0 setrgbcolor
newpath
19417.8 29630 moveto
19142.2 29630 lineto
stroke
0 0 0 setrgbcolor
591 setlinewidth
newpath
15676.5 30630 moveto
15283.5 30630 lineto
stroke
0 0 0 setrgbcolor
newpath
15676.5 29630 moveto
15283.5 29630 lineto
stroke
0 0 0 setrgbcolor
newpath
15676.5 31630 moveto
15283.5 31630 lineto
stroke
0 0 0 setrgbcolor
0 setlinewidth
41180.2 29531 334.5 cir1
39.3701 setlinewidth
0 0 0 setrgbcolor
0 setlinewidth
newpath
37514.7 29196.5 moveto
37514.7 29865.5 lineto
36845.7 29865.5 lineto
36845.7 29196.5 lineto
37514.7 29196.5 lineto
poly1
0 0 0 setrgbcolor
37179.8 30629 334.5 cir1
39.3701 setlinewidth
0 0 0 setrgbcolor
0 setlinewidth
newpath
40845.3 30963.5 moveto
40845.3 30294.5 lineto
41514.3 30294.5 lineto
41514.3 30963.5 lineto
40845.3 30963.5 lineto
poly1
0 0 0 setrgbcolor
41180.2 28331 334.5 cir1
39.3701 setlinewidth
0 0 0 setrgbcolor
0 setlinewidth
newpath
37514.7 27996.5 moveto
37514.7 28665.5 lineto
36845.7 28665.5 lineto
36845.7 27996.5 lineto
37514.7 27996.5 lineto
poly1
0 0 0 setrgbcolor
37179.8 31729 334.5 cir1
39.3701 setlinewidth
0 0 0 setrgbcolor
0 setlinewidth
newpath
40845.3 32063.5 moveto
40845.3 31394.5 lineto
41514.3 31394.5 lineto
41514.3 32063.5 lineto
40845.3 32063.5 lineto
poly1
0 0 0 setrgbcolor
20980 34930 886 cir1
39.3701 setlinewidth
0 0 0 setrgbcolor
0 setlinewidth
27680 34930 886 cir1
39.3701 setlinewidth
0 0 0 setrgbcolor
0 setlinewidth
24180 34930 886 cir1
39.3701 setlinewidth
0 0 0 setrgbcolor
0 setlinewidth
17580 34930 886 cir1
39.3701 setlinewidth
0 0 0 setrgbcolor
0 setlinewidth
newpath
27620 17990 moveto
27620 18870 lineto
26740 18870 lineto
26740 17990 lineto
27620 17990 lineto
poly1
0 0 0 setrgbcolor
newpath
34720 21690 moveto
34720 22570 lineto
33840 22570 lineto
33840 21690 lineto
34720 21690 lineto
poly1
0 0 0 setrgbcolor
newpath
34720 26490 moveto
34720 27370 lineto
33840 27370 lineto
33840 26490 lineto
34720 26490 lineto
poly1
0 0 0 setrgbcolor
newpath
31020 26490 moveto
31020 27370 lineto
30140 27370 lineto
30140 26490 lineto
31020 26490 lineto
poly1
0 0 0 setrgbcolor
newpath
30695 50090 moveto
30695 50970 lineto
29815 50970 lineto
29815 50090 lineto
30695 50090 lineto
poly1
0 0 0 setrgbcolor
newpath
34395 50090 moveto
34395 50970 lineto
33515 50970 lineto
33515 50090 lineto
34395 50090 lineto
poly1
0 0 0 setrgbcolor
newpath
34395 45290 moveto
34395 46170 lineto
33515 46170 lineto
33515 45290 lineto
34395 45290 lineto
poly1
0 0 0 setrgbcolor
newpath
27295 41590 moveto
27295 42470 lineto
26415 42470 lineto
26415 41590 lineto
27295 41590 lineto
poly1
0 0 0 setrgbcolor
17255 58530 886 cir1
39.3701 setlinewidth
0 0 0 setrgbcolor
0 setlinewidth
23855 58530 886 cir1
39.3701 setlinewidth
0 0 0 setrgbcolor
0 setlinewidth
27355 58530 886 cir1
39.3701 setlinewidth
0 0 0 setrgbcolor
0 setlinewidth
20655 58530 886 cir1
39.3701 setlinewidth
0 0 0 setrgbcolor
0 setlinewidth
36854.8 55329 334.5 cir1
39.3701 setlinewidth
0 0 0 setrgbcolor
0 setlinewidth
newpath
40520.3 55663.5 moveto
40520.3 54994.5 lineto
41189.3 54994.5 lineto
41189.3 55663.5 lineto
40520.3 55663.5 lineto
poly1
0 0 0 setrgbcolor
40855.2 51931 334.5 cir1
39.3701 setlinewidth
0 0 0 setrgbcolor
0 setlinewidth
newpath
37189.7 51596.5 moveto
37189.7 52265.5 lineto
36520.7 52265.5 lineto
36520.7 51596.5 lineto
37189.7 51596.5 lineto
poly1
0 0 0 setrgbcolor
36854.8 54229 334.5 cir1
39.3701 setlinewidth
0 0 0 setrgbcolor
0 setlinewidth
newpath
40520.3 54563.5 moveto
40520.3 53894.5 lineto
41189.3 53894.5 lineto
41189.3 54563.5 lineto
40520.3 54563.5 lineto
poly1
0 0 0 setrgbcolor
40855.2 53131 334.5 cir1
39.3701 setlinewidth
0 0 0 setrgbcolor
0 setlinewidth
newpath
37189.7 52796.5 moveto
37189.7 53465.5 lineto
36520.7 53465.5 lineto
36520.7 52796.5 lineto
37189.7 52796.5 lineto
poly1
0 0 0 setrgbcolor
591 setlinewidth
newpath
15351.5 54230 moveto
14958.5 54230 lineto
stroke
0 0 0 setrgbcolor
newpath
15351.5 53230 moveto
14958.5 53230 lineto
stroke
0 0 0 setrgbcolor
newpath
15351.5 55230 moveto
14958.5 55230 lineto
stroke
0 0 0 setrgbcolor
629.921 setlinewidth
newpath
22092.8 53230 moveto
21817.2 53230 lineto
stroke
0 0 0 setrgbcolor
newpath
22092.8 54230 moveto
21817.2 54230 lineto
stroke
0 0 0 setrgbcolor
newpath
22092.8 55230 moveto
21817.2 55230 lineto
stroke
0 0 0 setrgbcolor
newpath
19092.8 55230 moveto
18817.2 55230 lineto
stroke
0 0 0 setrgbcolor
newpath
19092.8 54230 moveto
18817.2 54230 lineto
stroke
0 0 0 setrgbcolor
newpath
19092.8 53230 moveto
18817.2 53230 lineto
stroke
0 0 0 setrgbcolor
newpath
35192.8 53130 moveto
34917.2 53130 lineto
stroke
0 0 0 setrgbcolor
newpath
35192.8 54130 moveto
34917.2 54130 lineto
stroke
0 0 0 setrgbcolor
newpath
35192.8 55130 moveto
34917.2 55130 lineto
stroke
0 0 0 setrgbcolor
newpath
32192.8 55130 moveto
31917.2 55130 lineto
stroke
0 0 0 setrgbcolor
newpath
32192.8 54130 moveto
31917.2 54130 lineto
stroke
0 0 0 setrgbcolor
newpath
32192.8 53130 moveto
31917.2 53130 lineto
stroke
0 0 0 setrgbcolor
0 setlinewidth
newpath
27295 52990 moveto
27295 53870 lineto
26415 53870 lineto
26415 52990 lineto
27295 52990 lineto
poly1
0 0 0 setrgbcolor
newpath
24048.7 53623.7 moveto
23261.3 53623.7 lineto
23261.3 52836.3 lineto
24048.7 52836.3 lineto
24048.7 53623.7 lineto
poly1
0 0 0 setrgbcolor
24655 53230 393.701 cir1
39.3701 setlinewidth
0 0 0 setrgbcolor
0 setlinewidth
newpath
35415 49670 moveto
35415 48990 lineto
36095 48990 lineto
36095 49670 lineto
35415 49670 lineto
poly1
0 0 0 setrgbcolor
680 setlinewidth
newpath
36755 49330 moveto
36755 49330 lineto
stroke
0 0 0 setrgbcolor
newpath
35755 48330 moveto
35755 48330 lineto
stroke
0 0 0 setrgbcolor
newpath
36755 48330 moveto
36755 48330 lineto
stroke
0 0 0 setrgbcolor
newpath
35755 47330 moveto
35755 47330 lineto
stroke
0 0 0 setrgbcolor
newpath
36755 47330 moveto
36755 47330 lineto
stroke
0 0 0 setrgbcolor
newpath
35755 46330 moveto
35755 46330 lineto
stroke
0 0 0 setrgbcolor
newpath
36755 46330 moveto
36755 46330 lineto
stroke
0 0 0 setrgbcolor
newpath
35755 45330 moveto
35755 45330 lineto
stroke
0 0 0 setrgbcolor
newpath
36755 45330 moveto
36755 45330 lineto
stroke
0 0 0 setrgbcolor
0 setlinewidth
newpath
35995 40030 moveto
35315 40030 lineto
35315 39230 lineto
35995 39230 lineto
35995 40030 lineto
poly1
0 0 0 setrgbcolor
680 setlinewidth
newpath
34655 39690 moveto
34655 39570 lineto
stroke
0 0 0 setrgbcolor
newpath
33655 39690 moveto
33655 39570 lineto
stroke
0 0 0 setrgbcolor
newpath
32655 39690 moveto
32655 39570 lineto
stroke
0 0 0 setrgbcolor
newpath
31655 39690 moveto
31655 39570 lineto
stroke
0 0 0 setrgbcolor
newpath
30655 39690 moveto
30655 39570 lineto
stroke
0 0 0 setrgbcolor
newpath
29655 39690 moveto
29655 39570 lineto
stroke
0 0 0 setrgbcolor
newpath
28655 39690 moveto
28655 39570 lineto
stroke
0 0 0 setrgbcolor
newpath
27655 39690 moveto
27655 39570 lineto
stroke
0 0 0 setrgbcolor
newpath
26655 39690 moveto
26655 39570 lineto
stroke
0 0 0 setrgbcolor
newpath
25655 39690 moveto
25655 39570 lineto
stroke
0 0 0 setrgbcolor
newpath
24655 39690 moveto
24655 39570 lineto
stroke
0 0 0 setrgbcolor
newpath
23655 39690 moveto
23655 39570 lineto
stroke
0 0 0 setrgbcolor
newpath
22655 39690 moveto
22655 39570 lineto
stroke
0 0 0 setrgbcolor
newpath
21655 39690 moveto
21655 39570 lineto
stroke
0 0 0 setrgbcolor
newpath
20655 39690 moveto
20655 39570 lineto
stroke
0 0 0 setrgbcolor
0 setlinewidth
newpath
71270 40180 moveto
70590 40180 lineto
70590 39380 lineto
71270 39380 lineto
71270 40180 lineto
poly1
0 0 0 setrgbcolor
680 setlinewidth
newpath
69930 39840 moveto
69930 39720 lineto
stroke
0 0 0 setrgbcolor
newpath
68930 39840 moveto
68930 39720 lineto
stroke
0 0 0 setrgbcolor
newpath
67930 39840 moveto
67930 39720 lineto
stroke
0 0 0 setrgbcolor
newpath
66930 39840 moveto
66930 39720 lineto
stroke
0 0 0 setrgbcolor
newpath
65930 39840 moveto
65930 39720 lineto
stroke
0 0 0 setrgbcolor
newpath
64930 39840 moveto
64930 39720 lineto
stroke
0 0 0 setrgbcolor
newpath
63930 39840 moveto
63930 39720 lineto
stroke
0 0 0 setrgbcolor
newpath
62930 39840 moveto
62930 39720 lineto
stroke
0 0 0 setrgbcolor
newpath
61930 39840 moveto
61930 39720 lineto
stroke
0 0 0 setrgbcolor
newpath
60930 39840 moveto
60930 39720 lineto
stroke
0 0 0 setrgbcolor
newpath
59930 39840 moveto
59930 39720 lineto
stroke
0 0 0 setrgbcolor
newpath
58930 39840 moveto
58930 39720 lineto
stroke
0 0 0 setrgbcolor
newpath
57930 39840 moveto
57930 39720 lineto
stroke
0 0 0 setrgbcolor
newpath
56930 39840 moveto
56930 39720 lineto
stroke
0 0 0 setrgbcolor
newpath
55930 39840 moveto
55930 39720 lineto
stroke
0 0 0 setrgbcolor
0 setlinewidth
newpath
70690 49820 moveto
70690 49140 lineto
71370 49140 lineto
71370 49820 lineto
70690 49820 lineto
poly1
0 0 0 setrgbcolor
680 setlinewidth
newpath
72030 49480 moveto
72030 49480 lineto
stroke
0 0 0 setrgbcolor
newpath
71030 48480 moveto
71030 48480 lineto
stroke
0 0 0 setrgbcolor
newpath
72030 48480 moveto
72030 48480 lineto
stroke
0 0 0 setrgbcolor
newpath
71030 47480 moveto
71030 47480 lineto
stroke
0 0 0 setrgbcolor
newpath
72030 47480 moveto
72030 47480 lineto
stroke
0 0 0 setrgbcolor
newpath
71030 46480 moveto
71030 46480 lineto
stroke
0 0 0 setrgbcolor
newpath
72030 46480 moveto
72030 46480 lineto
stroke
0 0 0 setrgbcolor
newpath
71030 45480 moveto
71030 45480 lineto
stroke
0 0 0 setrgbcolor
newpath
72030 45480 moveto
72030 45480 lineto
stroke
0 0 0 setrgbcolor
0 setlinewidth
newpath
59323.7 53773.7 moveto
58536.3 53773.7 lineto
58536.3 52986.3 lineto
59323.7 52986.3 lineto
59323.7 53773.7 lineto
poly1
0 0 0 setrgbcolor
59930 53380 393.701 cir1
39.3701 setlinewidth
0 0 0 setrgbcolor
0 setlinewidth
newpath
62570 53140 moveto
62570 54020 lineto
61690 54020 lineto
61690 53140 lineto
62570 53140 lineto
poly1
0 0 0 setrgbcolor
629.921 setlinewidth
newpath
70467.8 53280 moveto
70192.2 53280 lineto
stroke
0 0 0 setrgbcolor
newpath
70467.8 54280 moveto
70192.2 54280 lineto
stroke
0 0 0 setrgbcolor
newpath
70467.8 55280 moveto
70192.2 55280 lineto
stroke
0 0 0 setrgbcolor
newpath
67467.8 55280 moveto
67192.2 55280 lineto
stroke
0 0 0 setrgbcolor
newpath
67467.8 54280 moveto
67192.2 54280 lineto
stroke
0 0 0 setrgbcolor
newpath
67467.8 53280 moveto
67192.2 53280 lineto
stroke
0 0 0 setrgbcolor
newpath
57367.8 53380 moveto
57092.2 53380 lineto
stroke
0 0 0 setrgbcolor
newpath
57367.8 54380 moveto
57092.2 54380 lineto
stroke
0 0 0 setrgbcolor
newpath
57367.8 55380 moveto
57092.2 55380 lineto
stroke
0 0 0 setrgbcolor
newpath
54367.8 55380 moveto
54092.2 55380 lineto
stroke
0 0 0 setrgbcolor
newpath
54367.8 54380 moveto
54092.2 54380 lineto
stroke
0 0 0 setrgbcolor
newpath
54367.8 53380 moveto
54092.2 53380 lineto
stroke
0 0 0 setrgbcolor
591 setlinewidth
newpath
50626.5 54380 moveto
50233.5 54380 lineto
stroke
0 0 0 setrgbcolor
newpath
50626.5 53380 moveto
50233.5 53380 lineto
stroke
0 0 0 setrgbcolor
newpath
50626.5 55380 moveto
50233.5 55380 lineto
stroke
0 0 0 setrgbcolor
0 setlinewidth
76130.2 53281 334.5 cir1
39.3701 setlinewidth
0 0 0 setrgbcolor
0 setlinewidth
newpath
72464.7 52946.5 moveto
72464.7 53615.5 lineto
71795.7 53615.5 lineto
71795.7 52946.5 lineto
72464.7 52946.5 lineto
poly1
0 0 0 setrgbcolor
72129.8 54379 334.5 cir1
39.3701 setlinewidth
0 0 0 setrgbcolor
0 setlinewidth
newpath
75795.3 54713.5 moveto
75795.3 54044.5 lineto
76464.3 54044.5 lineto
76464.3 54713.5 lineto
75795.3 54713.5 lineto
poly1
0 0 0 setrgbcolor
76130.2 52081 334.5 cir1
39.3701 setlinewidth
0 0 0 setrgbcolor
0 setlinewidth
newpath
72464.7 51746.5 moveto
72464.7 52415.5 lineto
71795.7 52415.5 lineto
71795.7 51746.5 lineto
72464.7 51746.5 lineto
poly1
0 0 0 setrgbcolor
72129.8 55479 334.5 cir1
39.3701 setlinewidth
0 0 0 setrgbcolor
0 setlinewidth
newpath
75795.3 55813.5 moveto
75795.3 55144.5 lineto
76464.3 55144.5 lineto
76464.3 55813.5 lineto
75795.3 55813.5 lineto
poly1
0 0 0 setrgbcolor
55930 58680 886 cir1
39.3701 setlinewidth
0 0 0 setrgbcolor
0 setlinewidth
62630 58680 886 cir1
39.3701 setlinewidth
0 0 0 setrgbcolor
0 setlinewidth
59130 58680 886 cir1
39.3701 setlinewidth
0 0 0 setrgbcolor
0 setlinewidth
52530 58680 886 cir1
39.3701 setlinewidth
0 0 0 setrgbcolor
0 setlinewidth
newpath
62570 41740 moveto
62570 42620 lineto
61690 42620 lineto
61690 41740 lineto
62570 41740 lineto
poly1
0 0 0 setrgbcolor
newpath
69670 45440 moveto
69670 46320 lineto
68790 46320 lineto
68790 45440 lineto
69670 45440 lineto
poly1
0 0 0 setrgbcolor
newpath
69670 50240 moveto
69670 51120 lineto
68790 51120 lineto
68790 50240 lineto
69670 50240 lineto
poly1
0 0 0 setrgbcolor
newpath
65970 50240 moveto
65970 51120 lineto
65090 51120 lineto
65090 50240 lineto
65970 50240 lineto
poly1
1 1 1 setrgbcolor
65855 27080 68.8976 cir1
39.3701 setlinewidth
0 setlinewidth
69555 27080 68.8976 cir1
39.3701 setlinewidth
0 setlinewidth
69555 22280 68.8976 cir1
39.3701 setlinewidth
0 setlinewidth
62455 18580 68.8976 cir1
39.3701 setlinewidth
0 setlinewidth
52855 35080 68.8976 cir1
39.3701 setlinewidth
0 setlinewidth
59455 35080 68.8976 cir1
39.3701 setlinewidth
0 setlinewidth
62955 35080 68.8976 cir1
39.3701 setlinewidth
0 setlinewidth
56255 35080 68.8976 cir1
39.3701 setlinewidth
0 setlinewidth
72454.8 31879 68.8976 cir1
39.3701 setlinewidth
0 setlinewidth
76454.8 31879 68.8976 cir1
39.3701 setlinewidth
0 setlinewidth
76455.2 28481 68.8976 cir1
39.3701 setlinewidth
0 setlinewidth
72455.2 28481 68.8976 cir1
39.3701 setlinewidth
0 setlinewidth
72454.8 30779 68.8976 cir1
39.3701 setlinewidth
0 setlinewidth
76454.8 30779 68.8976 cir1
39.3701 setlinewidth
0 setlinewidth
76455.2 29681 68.8976 cir1
39.3701 setlinewidth
0 setlinewidth
72455.2 29681 68.8976 cir1
39.3701 setlinewidth
0 setlinewidth
50755 30780 68.8976 cir1
39.3701 setlinewidth
0 setlinewidth
50755 29780 68.8976 cir1
39.3701 setlinewidth
0 setlinewidth
50755 31780 68.8976 cir1
39.3701 setlinewidth
0 setlinewidth
57555 29780 68.8976 cir1
39.3701 setlinewidth
0 setlinewidth
57555 30780 68.8976 cir1
39.3701 setlinewidth
0 setlinewidth
57555 31780 68.8976 cir1
39.3701 setlinewidth
0 setlinewidth
54555 31780 68.8976 cir1
39.3701 setlinewidth
0 setlinewidth
54555 30780 68.8976 cir1
39.3701 setlinewidth
0 setlinewidth
54555 29780 68.8976 cir1
39.3701 setlinewidth
0 setlinewidth
70655 29680 68.8976 cir1
39.3701 setlinewidth
0 setlinewidth
70655 30680 68.8976 cir1
39.3701 setlinewidth
0 setlinewidth
70655 31680 68.8976 cir1
39.3701 setlinewidth
0 setlinewidth
67655 31680 68.8976 cir1
39.3701 setlinewidth
0 setlinewidth
67655 30680 68.8976 cir1
39.3701 setlinewidth
0 setlinewidth
67655 29680 68.8976 cir1
39.3701 setlinewidth
0 setlinewidth
62455 29980 68.8976 cir1
39.3701 setlinewidth
0 setlinewidth
59255 29780 68.8976 cir1
39.3701 setlinewidth
0 setlinewidth
60255 29780 68.8976 cir1
39.3701 setlinewidth
0 setlinewidth
71355 25880 68.8976 cir1
39.3701 setlinewidth
0 setlinewidth
72355 25880 68.8976 cir1
39.3701 setlinewidth
0 setlinewidth
71355 24880 68.8976 cir1
39.3701 setlinewidth
0 setlinewidth
72355 24880 68.8976 cir1
39.3701 setlinewidth
0 setlinewidth
71355 23880 68.8976 cir1
39.3701 setlinewidth
0 setlinewidth
72355 23880 68.8976 cir1
39.3701 setlinewidth
0 setlinewidth
71355 22880 68.8976 cir1
39.3701 setlinewidth
0 setlinewidth
72355 22880 68.8976 cir1
39.3701 setlinewidth
0 setlinewidth
71355 21880 68.8976 cir1
39.3701 setlinewidth
0 setlinewidth
72355 21880 68.8976 cir1
39.3701 setlinewidth
0 setlinewidth
71255 16180 68.8976 cir1
39.3701 setlinewidth
0 setlinewidth
70255 16180 68.8976 cir1
39.3701 setlinewidth
0 setlinewidth
69255 16180 68.8976 cir1
39.3701 setlinewidth
0 setlinewidth
68255 16180 68.8976 cir1
39.3701 setlinewidth
0 setlinewidth
67255 16180 68.8976 cir1
39.3701 setlinewidth
0 setlinewidth
66255 16180 68.8976 cir1
39.3701 setlinewidth
0 setlinewidth
65255 16180 68.8976 cir1
39.3701 setlinewidth
0 setlinewidth
64255 16180 68.8976 cir1
39.3701 setlinewidth
0 setlinewidth
63255 16180 68.8976 cir1
39.3701 setlinewidth
0 setlinewidth
62255 16180 68.8976 cir1
39.3701 setlinewidth
0 setlinewidth
61255 16180 68.8976 cir1
39.3701 setlinewidth
0 setlinewidth
60255 16180 68.8976 cir1
39.3701 setlinewidth
0 setlinewidth
59255 16180 68.8976 cir1
39.3701 setlinewidth
0 setlinewidth
58255 16180 68.8976 cir1
39.3701 setlinewidth
0 setlinewidth
57255 16180 68.8976 cir1
39.3701 setlinewidth
0 setlinewidth
56255 16180 68.8976 cir1
39.3701 setlinewidth
0 setlinewidth
35980 16030 68.8976 cir1
39.3701 setlinewidth
0 setlinewidth
34980 16030 68.8976 cir1
39.3701 setlinewidth
0 setlinewidth
33980 16030 68.8976 cir1
39.3701 setlinewidth
0 setlinewidth
32980 16030 68.8976 cir1
39.3701 setlinewidth
0 setlinewidth
31980 16030 68.8976 cir1
39.3701 setlinewidth
0 setlinewidth
30980 16030 68.8976 cir1
39.3701 setlinewidth
0 setlinewidth
29980 16030 68.8976 cir1
39.3701 setlinewidth
0 setlinewidth
28980 16030 68.8976 cir1
39.3701 setlinewidth
0 setlinewidth
27980 16030 68.8976 cir1
39.3701 setlinewidth
0 setlinewidth
26980 16030 68.8976 cir1
39.3701 setlinewidth
0 setlinewidth
25980 16030 68.8976 cir1
39.3701 setlinewidth
0 setlinewidth
24980 16030 68.8976 cir1
39.3701 setlinewidth
0 setlinewidth
23980 16030 68.8976 cir1
39.3701 setlinewidth
0 setlinewidth
22980 16030 68.8976 cir1
39.3701 setlinewidth
0 setlinewidth
21980 16030 68.8976 cir1
39.3701 setlinewidth
0 setlinewidth
20980 16030 68.8976 cir1
39.3701 setlinewidth
0 setlinewidth
36080 25730 68.8976 cir1
39.3701 setlinewidth
0 setlinewidth
37080 25730 68.8976 cir1
39.3701 setlinewidth
0 setlinewidth
36080 24730 68.8976 cir1
39.3701 setlinewidth
0 setlinewidth
37080 24730 68.8976 cir1
39.3701 setlinewidth
0 setlinewidth
36080 23730 68.8976 cir1
39.3701 setlinewidth
0 setlinewidth
37080 23730 68.8976 cir1
39.3701 setlinewidth
0 setlinewidth
36080 22730 68.8976 cir1
39.3701 setlinewidth
0 setlinewidth
37080 22730 68.8976 cir1
39.3701 setlinewidth
0 setlinewidth
36080 21730 68.8976 cir1
39.3701 setlinewidth
0 setlinewidth
37080 21730 68.8976 cir1
39.3701 setlinewidth
0 setlinewidth
23980 29630 68.8976 cir1
39.3701 setlinewidth
0 setlinewidth
24980 29630 68.8976 cir1
39.3701 setlinewidth
0 setlinewidth
27180 29830 68.8976 cir1
39.3701 setlinewidth
0 setlinewidth
35380 29530 68.8976 cir1
39.3701 setlinewidth
0 setlinewidth
35380 30530 68.8976 cir1
39.3701 setlinewidth
0 setlinewidth
35380 31530 68.8976 cir1
39.3701 setlinewidth
0 setlinewidth
32380 31530 68.8976 cir1
39.3701 setlinewidth
0 setlinewidth
32380 30530 68.8976 cir1
39.3701 setlinewidth
0 setlinewidth
32380 29530 68.8976 cir1
39.3701 setlinewidth
0 setlinewidth
22280 29630 68.8976 cir1
39.3701 setlinewidth
0 setlinewidth
22280 30630 68.8976 cir1
39.3701 setlinewidth
0 setlinewidth
22280 31630 68.8976 cir1
39.3701 setlinewidth
0 setlinewidth
19280 31630 68.8976 cir1
39.3701 setlinewidth
0 setlinewidth
19280 30630 68.8976 cir1
39.3701 setlinewidth
0 setlinewidth
19280 29630 68.8976 cir1
39.3701 setlinewidth
0 setlinewidth
15480 30630 68.8976 cir1
39.3701 setlinewidth
0 setlinewidth
15480 29630 68.8976 cir1
39.3701 setlinewidth
0 setlinewidth
15480 31630 68.8976 cir1
39.3701 setlinewidth
0 setlinewidth
41180.2 29531 68.8976 cir1
39.3701 setlinewidth
0 setlinewidth
37180.2 29531 68.8976 cir1
39.3701 setlinewidth
0 setlinewidth
37179.8 30629 68.8976 cir1
39.3701 setlinewidth
0 setlinewidth
41179.8 30629 68.8976 cir1
39.3701 setlinewidth
0 setlinewidth
41180.2 28331 68.8976 cir1
39.3701 setlinewidth
0 setlinewidth
37180.2 28331 68.8976 cir1
39.3701 setlinewidth
0 setlinewidth
37179.8 31729 68.8976 cir1
39.3701 setlinewidth
0 setlinewidth
41179.8 31729 68.8976 cir1
39.3701 setlinewidth
0 setlinewidth
20980 34930 68.8976 cir1
39.3701 setlinewidth
0 setlinewidth
27680 34930 68.8976 cir1
39.3701 setlinewidth
0 setlinewidth
24180 34930 68.8976 cir1
39.3701 setlinewidth
0 setlinewidth
17580 34930 68.8976 cir1
39.3701 setlinewidth
0 setlinewidth
27180 18430 68.8976 cir1
39.3701 setlinewidth
0 setlinewidth
34280 22130 68.8976 cir1
39.3701 setlinewidth
0 setlinewidth
34280 26930 68.8976 cir1
39.3701 setlinewidth
0 setlinewidth
30580 26930 68.8976 cir1
39.3701 setlinewidth
0 setlinewidth
30255 50530 68.8976 cir1
39.3701 setlinewidth
0 setlinewidth
33955 50530 68.8976 cir1
39.3701 setlinewidth
0 setlinewidth
33955 45730 68.8976 cir1
39.3701 setlinewidth
0 setlinewidth
26855 42030 68.8976 cir1
39.3701 setlinewidth
0 setlinewidth
17255 58530 68.8976 cir1
39.3701 setlinewidth
0 setlinewidth
23855 58530 68.8976 cir1
39.3701 setlinewidth
0 setlinewidth
27355 58530 68.8976 cir1
39.3701 setlinewidth
0 setlinewidth
20655 58530 68.8976 cir1
39.3701 setlinewidth
0 setlinewidth
36854.8 55329 68.8976 cir1
39.3701 setlinewidth
0 setlinewidth
40854.8 55329 68.8976 cir1
39.3701 setlinewidth
0 setlinewidth
40855.2 51931 68.8976 cir1
39.3701 setlinewidth
0 setlinewidth
36855.2 51931 68.8976 cir1
39.3701 setlinewidth
0 setlinewidth
36854.8 54229 68.8976 cir1
39.3701 setlinewidth
0 setlinewidth
40854.8 54229 68.8976 cir1
39.3701 setlinewidth
0 setlinewidth
40855.2 53131 68.8976 cir1
39.3701 setlinewidth
0 setlinewidth
36855.2 53131 68.8976 cir1
39.3701 setlinewidth
0 setlinewidth
15155 54230 68.8976 cir1
39.3701 setlinewidth
0 setlinewidth
15155 53230 68.8976 cir1
39.3701 setlinewidth
0 setlinewidth
15155 55230 68.8976 cir1
39.3701 setlinewidth
0 setlinewidth
21955 53230 68.8976 cir1
39.3701 setlinewidth
0 setlinewidth
21955 54230 68.8976 cir1
39.3701 setlinewidth
0 setlinewidth
21955 55230 68.8976 cir1
39.3701 setlinewidth
0 setlinewidth
18955 55230 68.8976 cir1
39.3701 setlinewidth
0 setlinewidth
18955 54230 68.8976 cir1
39.3701 setlinewidth
0 setlinewidth
18955 53230 68.8976 cir1
39.3701 setlinewidth
0 setlinewidth
35055 53130 68.8976 cir1
39.3701 setlinewidth
0 setlinewidth
35055 54130 68.8976 cir1
39.3701 setlinewidth
0 setlinewidth
35055 55130 68.8976 cir1
39.3701 setlinewidth
0 setlinewidth
32055 55130 68.8976 cir1
39.3701 setlinewidth
0 setlinewidth
32055 54130 68.8976 cir1
39.3701 setlinewidth
0 setlinewidth
32055 53130 68.8976 cir1
39.3701 setlinewidth
0 setlinewidth
26855 53430 68.8976 cir1
39.3701 setlinewidth
0 setlinewidth
23655 53230 68.8976 cir1
39.3701 setlinewidth
0 setlinewidth
24655 53230 68.8976 cir1
39.3701 setlinewidth
0 setlinewidth
35755 49330 68.8976 cir1
39.3701 setlinewidth
0 setlinewidth
36755 49330 68.8976 cir1
39.3701 setlinewidth
0 setlinewidth
35755 48330 68.8976 cir1
39.3701 setlinewidth
0 setlinewidth
36755 48330 68.8976 cir1
39.3701 setlinewidth
0 setlinewidth
35755 47330 68.8976 cir1
39.3701 setlinewidth
0 setlinewidth
36755 47330 68.8976 cir1
39.3701 setlinewidth
0 setlinewidth
35755 46330 68.8976 cir1
39.3701 setlinewidth
0 setlinewidth
36755 46330 68.8976 cir1
39.3701 setlinewidth
0 setlinewidth
35755 45330 68.8976 cir1
39.3701 setlinewidth
0 setlinewidth
36755 45330 68.8976 cir1
39.3701 setlinewidth
0 setlinewidth
35655 39630 68.8976 cir1
39.3701 setlinewidth
0 setlinewidth
34655 39630 68.8976 cir1
39.3701 setlinewidth
0 setlinewidth
33655 39630 68.8976 cir1
39.3701 setlinewidth
0 setlinewidth
32655 39630 68.8976 cir1
39.3701 setlinewidth
0 setlinewidth
31655 39630 68.8976 cir1
39.3701 setlinewidth
0 setlinewidth
30655 39630 68.8976 cir1
39.3701 setlinewidth
0 setlinewidth
29655 39630 68.8976 cir1
39.3701 setlinewidth
0 setlinewidth
28655 39630 68.8976 cir1
39.3701 setlinewidth
0 setlinewidth
27655 39630 68.8976 cir1
39.3701 setlinewidth
0 setlinewidth
26655 39630 68.8976 cir1
39.3701 setlinewidth
0 setlinewidth
25655 39630 68.8976 cir1
39.3701 setlinewidth
0 setlinewidth
24655 39630 68.8976 cir1
39.3701 setlinewidth
0 setlinewidth
23655 39630 68.8976 cir1
39.3701 setlinewidth
0 setlinewidth
22655 39630 68.8976 cir1
39.3701 setlinewidth
0 setlinewidth
21655 39630 68.8976 cir1
39.3701 setlinewidth
0 setlinewidth
20655 39630 68.8976 cir1
39.3701 setlinewidth
0 setlinewidth
70930 39780 68.8976 cir1
39.3701 setlinewidth
0 setlinewidth
69930 39780 68.8976 cir1
39.3701 setlinewidth
0 setlinewidth
68930 39780 68.8976 cir1
39.3701 setlinewidth
0 setlinewidth
67930 39780 68.8976 cir1
39.3701 setlinewidth
0 setlinewidth
66930 39780 68.8976 cir1
39.3701 setlinewidth
0 setlinewidth
65930 39780 68.8976 cir1
39.3701 setlinewidth
0 setlinewidth
64930 39780 68.8976 cir1
39.3701 setlinewidth
0 setlinewidth
63930 39780 68.8976 cir1
39.3701 setlinewidth
0 setlinewidth
62930 39780 68.8976 cir1
39.3701 setlinewidth
0 setlinewidth
61930 39780 68.8976 cir1
39.3701 setlinewidth
0 setlinewidth
60930 39780 68.8976 cir1
39.3701 setlinewidth
0 setlinewidth
59930 39780 68.8976 cir1
39.3701 setlinewidth
0 setlinewidth
58930 39780 68.8976 cir1
39.3701 setlinewidth
0 setlinewidth
57930 39780 68.8976 cir1
39.3701 setlinewidth
0 setlinewidth
56930 39780 68.8976 cir1
39.3701 setlinewidth
0 setlinewidth
55930 39780 68.8976 cir1
39.3701 setlinewidth
0 setlinewidth
71030 49480 68.8976 cir1
39.3701 setlinewidth
0 setlinewidth
72030 49480 68.8976 cir1
39.3701 setlinewidth
0 setlinewidth
71030 48480 68.8976 cir1
39.3701 setlinewidth
0 setlinewidth
72030 48480 68.8976 cir1
39.3701 setlinewidth
0 setlinewidth
71030 47480 68.8976 cir1
39.3701 setlinewidth
0 setlinewidth
72030 47480 68.8976 cir1
39.3701 setlinewidth
0 setlinewidth
71030 46480 68.8976 cir1
39.3701 setlinewidth
0 setlinewidth
72030 46480 68.8976 cir1
39.3701 setlinewidth
0 setlinewidth
71030 45480 68.8976 cir1
39.3701 setlinewidth
0 setlinewidth
72030 45480 68.8976 cir1
39.3701 setlinewidth
0 setlinewidth
58930 53380 68.8976 cir1
39.3701 setlinewidth
0 setlinewidth
59930 53380 68.8976 cir1
39.3701 setlinewidth
0 setlinewidth
62130 53580 68.8976 cir1
39.3701 setlinewidth
0 setlinewidth
70330 53280 68.8976 cir1
39.3701 setlinewidth
0 setlinewidth
70330 54280 68.8976 cir1
39.3701 setlinewidth
0 setlinewidth
70330 55280 68.8976 cir1
39.3701 setlinewidth
0 setlinewidth
67330 55280 68.8976 cir1
39.3701 setlinewidth
0 setlinewidth
67330 54280 68.8976 cir1
39.3701 setlinewidth
0 setlinewidth
67330 53280 68.8976 cir1
39.3701 setlinewidth
0 setlinewidth
57230 53380 68.8976 cir1
39.3701 setlinewidth
0 setlinewidth
57230 54380 68.8976 cir1
39.3701 setlinewidth
0 setlinewidth
57230 55380 68.8976 cir1
39.3701 setlinewidth
0 setlinewidth
54230 55380 68.8976 cir1
39.3701 setlinewidth
0 setlinewidth
54230 54380 68.8976 cir1
39.3701 setlinewidth
0 setlinewidth
54230 53380 68.8976 cir1
39.3701 setlinewidth
0 setlinewidth
50430 54380 68.8976 cir1
39.3701 setlinewidth
0 setlinewidth
50430 53380 68.8976 cir1
39.3701 setlinewidth
0 setlinewidth
50430 55380 68.8976 cir1
39.3701 setlinewidth
0 setlinewidth
76130.2 53281 68.8976 cir1
39.3701 setlinewidth
0 setlinewidth
72130.2 53281 68.8976 cir1
39.3701 setlinewidth
0 setlinewidth
72129.8 54379 68.8976 cir1
39.3701 setlinewidth
0 setlinewidth
76129.8 54379 68.8976 cir1
39.3701 setlinewidth
0 setlinewidth
76130.2 52081 68.8976 cir1
39.3701 setlinewidth
0 setlinewidth
72130.2 52081 68.8976 cir1
39.3701 setlinewidth
0 setlinewidth
72129.8 55479 68.8976 cir1
39.3701 setlinewidth
0 setlinewidth
76129.8 55479 68.8976 cir1
39.3701 setlinewidth
0 setlinewidth
55930 58680 68.8976 cir1
39.3701 setlinewidth
0 setlinewidth
62630 58680 68.8976 cir1
39.3701 setlinewidth
0 setlinewidth
59130 58680 68.8976 cir1
39.3701 setlinewidth
0 setlinewidth
52530 58680 68.8976 cir1
39.3701 setlinewidth
0 setlinewidth
62130 42180 68.8976 cir1
39.3701 setlinewidth
0 setlinewidth
69230 45880 68.8976 cir1
39.3701 setlinewidth
0 setlinewidth
69230 50680 68.8976 cir1
39.3701 setlinewidth
0 setlinewidth
65530 50680 68.8976 cir1
39.3701 setlinewidth
0 0 0 setrgbcolor
showpage
grestore
%%EOF
